# Blender MTL File: 'town.blend'
# Material Count: 368

newmtl None
Ns 500
Ka 0.8 0.8 0.8
Kd 0.8 0.8 0.8
Ks 0.8 0.8 0.8
d 1
illum 2

newmtl _defaultMat
Ns 0.000000
Ka 1.000000 1.000000 1.000000
Kd 1.000000 1.000000 1.000000
Ks 1.000000 1.000000 1.000000
Ke 0.000000 0.000000 0.000000
Ni 1.450000
d 1.000000
illum 3

newmtl _defaultMat.001
Ns 0.000000
Ka 1.000000 1.000000 1.000000
Kd 1.000000 1.000000 1.000000
Ks 1.000000 1.000000 1.000000
Ke 0.000000 0.000000 0.000000
Ni 1.450000
d 1.000000
illum 3

newmtl _defaultMat.002
Ns 0.000000
Ka 1.000000 1.000000 1.000000
Kd 1.000000 1.000000 1.000000
Ks 1.000000 1.000000 1.000000
Ke 0.000000 0.000000 0.000000
Ni 1.450000
d 1.000000
illum 3

newmtl _defaultMat.003
Ns 0.000000
Ka 1.000000 1.000000 1.000000
Kd 1.000000 1.000000 1.000000
Ks 1.000000 1.000000 1.000000
Ke 0.000000 0.000000 0.000000
Ni 1.450000
d 1.000000
illum 3

newmtl _defaultMat.004
Ns 0.000000
Ka 1.000000 1.000000 1.000000
Kd 1.000000 1.000000 1.000000
Ks 1.000000 1.000000 1.000000
Ke 0.000000 0.000000 0.000000
Ni 1.450000
d 1.000000
illum 3

newmtl _defaultMat.005
Ns 0.000000
Ka 1.000000 1.000000 1.000000
Kd 1.000000 1.000000 1.000000
Ks 1.000000 1.000000 1.000000
Ke 0.000000 0.000000 0.000000
Ni 1.450000
d 1.000000
illum 3

newmtl _defaultMat.006
Ns 0.000000
Ka 1.000000 1.000000 1.000000
Kd 1.000000 1.000000 1.000000
Ks 1.000000 1.000000 1.000000
Ke 0.000000 0.000000 0.000000
Ni 1.450000
d 1.000000
illum 3

newmtl _defaultMat.007
Ns 0.000000
Ka 1.000000 1.000000 1.000000
Kd 1.000000 1.000000 1.000000
Ks 1.000000 1.000000 1.000000
Ke 0.000000 0.000000 0.000000
Ni 1.450000
d 1.000000
illum 3

newmtl _defaultMat.008
Ns 0.000000
Ka 1.000000 1.000000 1.000000
Kd 1.000000 1.000000 1.000000
Ks 1.000000 1.000000 1.000000
Ke 0.000000 0.000000 0.000000
Ni 1.450000
d 1.000000
illum 3

newmtl _defaultMat.009
Ns 0.000000
Ka 1.000000 1.000000 1.000000
Kd 1.000000 1.000000 1.000000
Ks 1.000000 1.000000 1.000000
Ke 0.000000 0.000000 0.000000
Ni 1.450000
d 1.000000
illum 3

newmtl _defaultMat.010
Ns 0.000000
Ka 1.000000 1.000000 1.000000
Kd 1.000000 1.000000 1.000000
Ks 1.000000 1.000000 1.000000
Ke 0.000000 0.000000 0.000000
Ni 1.450000
d 1.000000
illum 3

newmtl _defaultMat.011
Ns 0.000000
Ka 1.000000 1.000000 1.000000
Kd 1.000000 1.000000 1.000000
Ks 1.000000 1.000000 1.000000
Ke 0.000000 0.000000 0.000000
Ni 1.450000
d 1.000000
illum 3

newmtl _defaultMat.012
Ns 0.000000
Ka 1.000000 1.000000 1.000000
Kd 1.000000 1.000000 1.000000
Ks 1.000000 1.000000 1.000000
Ke 0.000000 0.000000 0.000000
Ni 1.450000
d 1.000000
illum 3

newmtl _defaultMat.013
Ns 0.000000
Ka 1.000000 1.000000 1.000000
Kd 1.000000 1.000000 1.000000
Ks 1.000000 1.000000 1.000000
Ke 0.000000 0.000000 0.000000
Ni 1.450000
d 1.000000
illum 3

newmtl _defaultMat.014
Ns 0.000000
Ka 1.000000 1.000000 1.000000
Kd 1.000000 1.000000 1.000000
Ks 1.000000 1.000000 1.000000
Ke 0.000000 0.000000 0.000000
Ni 1.450000
d 1.000000
illum 3

newmtl _defaultMat.015
Ns 0.000000
Ka 1.000000 1.000000 1.000000
Kd 1.000000 1.000000 1.000000
Ks 1.000000 1.000000 1.000000
Ke 0.000000 0.000000 0.000000
Ni 1.450000
d 1.000000
illum 3

newmtl dirt
Ns 0.000000
Ka 1.000000 1.000000 1.000000
Kd 0.175820 0.054651 0.013498
Ks 0.150000 0.150000 0.150000
Ke 0.000000 0.000000 0.000000
Ni 1.450000
d 1.000000
illum 2

newmtl foliage
Ns 0.000000
Ka 1.000000 1.000000 1.000000
Kd 0.226593 0.716981 0.585427
Ks 1.000000 1.000000 1.000000
Ke 0.000000 0.000000 0.000000
Ni 1.450000
d 1.000000
illum 3

newmtl foliage.001
Ns 0.000000
Ka 1.000000 1.000000 1.000000
Kd 0.226593 0.716981 0.585427
Ks 1.000000 1.000000 1.000000
Ke 0.000000 0.000000 0.000000
Ni 1.450000
d 1.000000
illum 3

newmtl foliage.002
Ns 0.000000
Ka 1.000000 1.000000 1.000000
Kd 0.226593 0.716981 0.585427
Ks 1.000000 1.000000 1.000000
Ke 0.000000 0.000000 0.000000
Ni 1.450000
d 1.000000
illum 3

newmtl foliage.003
Ns 0.000000
Ka 1.000000 1.000000 1.000000
Kd 0.226593 0.716981 0.585427
Ks 1.000000 1.000000 1.000000
Ke 0.000000 0.000000 0.000000
Ni 1.450000
d 1.000000
illum 3

newmtl foliage.004
Ns 0.000000
Ka 1.000000 1.000000 1.000000
Kd 0.226593 0.716981 0.585427
Ks 1.000000 1.000000 1.000000
Ke 0.000000 0.000000 0.000000
Ni 1.450000
d 1.000000
illum 3

newmtl foliage.005
Ns 0.000000
Ka 1.000000 1.000000 1.000000
Kd 0.226593 0.716981 0.585427
Ks 1.000000 1.000000 1.000000
Ke 0.000000 0.000000 0.000000
Ni 1.450000
d 1.000000
illum 3

newmtl foliage.006
Ns 0.000000
Ka 1.000000 1.000000 1.000000
Kd 0.226593 0.716981 0.585427
Ks 1.000000 1.000000 1.000000
Ke 0.000000 0.000000 0.000000
Ni 1.450000
d 1.000000
illum 3

newmtl foliage.007
Ns 0.000000
Ka 1.000000 1.000000 1.000000
Kd 0.226593 0.716981 0.585427
Ks 1.000000 1.000000 1.000000
Ke 0.000000 0.000000 0.000000
Ni 1.450000
d 1.000000
illum 3

newmtl hay
Ns 0.000000
Ka 1.000000 1.000000 1.000000
Kd 1.000000 0.748400 0.514151
Ks 1.000000 1.000000 1.000000
Ke 0.000000 0.000000 0.000000
Ni 1.450000
d 1.000000
illum 3

newmtl hay.001
Ns 0.000000
Ka 1.000000 1.000000 1.000000
Kd 1.000000 0.748400 0.514151
Ks 1.000000 1.000000 1.000000
Ke 0.000000 0.000000 0.000000
Ni 1.450000
d 1.000000
illum 3

newmtl hay.002
Ns 0.000000
Ka 1.000000 1.000000 1.000000
Kd 1.000000 0.748400 0.514151
Ks 1.000000 1.000000 1.000000
Ke 0.000000 0.000000 0.000000
Ni 1.450000
d 1.000000
illum 3

newmtl roof
Ns 0.000000
Ka 1.000000 1.000000 1.000000
Kd 0.258824 0.678431 0.529412
Ks 1.000000 1.000000 1.000000
Ke 0.000000 0.000000 0.000000
Ni 1.450000
d 1.000000
illum 3

newmtl roof.001
Ns 0.000000
Ka 1.000000 1.000000 1.000000
Kd 0.258824 0.678431 0.529412
Ks 1.000000 1.000000 1.000000
Ke 0.000000 0.000000 0.000000
Ni 1.450000
d 1.000000
illum 3

newmtl roof.002
Ns 0.000000
Ka 1.000000 1.000000 1.000000
Kd 0.258824 0.678431 0.529412
Ks 1.000000 1.000000 1.000000
Ke 0.000000 0.000000 0.000000
Ni 1.450000
d 1.000000
illum 3

newmtl roof.003
Ns 0.000000
Ka 1.000000 1.000000 1.000000
Kd 0.258824 0.678431 0.529412
Ks 1.000000 1.000000 1.000000
Ke 0.000000 0.000000 0.000000
Ni 1.450000
d 1.000000
illum 3

newmtl roof.004
Ns 0.000000
Ka 1.000000 1.000000 1.000000
Kd 0.258824 0.678431 0.529412
Ks 1.000000 1.000000 1.000000
Ke 0.000000 0.000000 0.000000
Ni 1.450000
d 1.000000
illum 3

newmtl roof.005
Ns 0.000000
Ka 1.000000 1.000000 1.000000
Kd 0.258824 0.678431 0.529412
Ks 1.000000 1.000000 1.000000
Ke 0.000000 0.000000 0.000000
Ni 1.450000
d 1.000000
illum 3

newmtl roof.006
Ns 0.000000
Ka 1.000000 1.000000 1.000000
Kd 0.258824 0.678431 0.529412
Ks 1.000000 1.000000 1.000000
Ke 0.000000 0.000000 0.000000
Ni 1.450000
d 1.000000
illum 3

newmtl roof.007
Ns 0.000000
Ka 1.000000 1.000000 1.000000
Kd 0.258824 0.678431 0.529412
Ks 1.000000 1.000000 1.000000
Ke 0.000000 0.000000 0.000000
Ni 1.450000
d 1.000000
illum 3

newmtl roof.008
Ns 0.000000
Ka 1.000000 1.000000 1.000000
Kd 0.258824 0.678431 0.529412
Ks 1.000000 1.000000 1.000000
Ke 0.000000 0.000000 0.000000
Ni 1.450000
d 1.000000
illum 3

newmtl roof.009
Ns 0.000000
Ka 1.000000 1.000000 1.000000
Kd 0.258824 0.678431 0.529412
Ks 1.000000 1.000000 1.000000
Ke 0.000000 0.000000 0.000000
Ni 1.450000
d 1.000000
illum 3

newmtl roof.010
Ns 0.000000
Ka 1.000000 1.000000 1.000000
Kd 0.258824 0.678431 0.529412
Ks 1.000000 1.000000 1.000000
Ke 0.000000 0.000000 0.000000
Ni 1.450000
d 1.000000
illum 3

newmtl roof.011
Ns 0.000000
Ka 1.000000 1.000000 1.000000
Kd 0.258824 0.678431 0.529412
Ks 1.000000 1.000000 1.000000
Ke 0.000000 0.000000 0.000000
Ni 1.450000
d 1.000000
illum 3

newmtl roof.012
Ns 0.000000
Ka 1.000000 1.000000 1.000000
Kd 0.258824 0.678431 0.529412
Ks 1.000000 1.000000 1.000000
Ke 0.000000 0.000000 0.000000
Ni 1.450000
d 1.000000
illum 3

newmtl roof.013
Ns 0.000000
Ka 1.000000 1.000000 1.000000
Kd 0.258824 0.678431 0.529412
Ks 1.000000 1.000000 1.000000
Ke 0.000000 0.000000 0.000000
Ni 1.450000
d 1.000000
illum 3

newmtl roof.014
Ns 0.000000
Ka 1.000000 1.000000 1.000000
Kd 0.258824 0.678431 0.529412
Ks 1.000000 1.000000 1.000000
Ke 0.000000 0.000000 0.000000
Ni 1.450000
d 1.000000
illum 3

newmtl roof.015
Ns 0.000000
Ka 1.000000 1.000000 1.000000
Kd 0.258824 0.678431 0.529412
Ks 1.000000 1.000000 1.000000
Ke 0.000000 0.000000 0.000000
Ni 1.450000
d 1.000000
illum 3

newmtl roofLight
Ns 0.000000
Ka 1.000000 1.000000 1.000000
Kd 0.286275 0.756863 0.592157
Ks 1.000000 1.000000 1.000000
Ke 0.000000 0.000000 0.000000
Ni 1.450000
d 1.000000
illum 3

newmtl roofLight.001
Ns 0.000000
Ka 1.000000 1.000000 1.000000
Kd 0.286275 0.756863 0.592157
Ks 1.000000 1.000000 1.000000
Ke 0.000000 0.000000 0.000000
Ni 1.450000
d 1.000000
illum 3

newmtl roofLight.002
Ns 0.000000
Ka 1.000000 1.000000 1.000000
Kd 0.286275 0.756863 0.592157
Ks 1.000000 1.000000 1.000000
Ke 0.000000 0.000000 0.000000
Ni 1.450000
d 1.000000
illum 3

newmtl roofLight.003
Ns 0.000000
Ka 1.000000 1.000000 1.000000
Kd 0.286275 0.756863 0.592157
Ks 1.000000 1.000000 1.000000
Ke 0.000000 0.000000 0.000000
Ni 1.450000
d 1.000000
illum 3

newmtl roofLight.004
Ns 0.000000
Ka 1.000000 1.000000 1.000000
Kd 0.286275 0.756863 0.592157
Ks 1.000000 1.000000 1.000000
Ke 0.000000 0.000000 0.000000
Ni 1.450000
d 1.000000
illum 3

newmtl roofLight.005
Ns 0.000000
Ka 1.000000 1.000000 1.000000
Kd 0.286275 0.756863 0.592157
Ks 1.000000 1.000000 1.000000
Ke 0.000000 0.000000 0.000000
Ni 1.450000
d 1.000000
illum 3

newmtl roofLight.006
Ns 0.000000
Ka 1.000000 1.000000 1.000000
Kd 0.286275 0.756863 0.592157
Ks 1.000000 1.000000 1.000000
Ke 0.000000 0.000000 0.000000
Ni 1.450000
d 1.000000
illum 3

newmtl roofLight.007
Ns 0.000000
Ka 1.000000 1.000000 1.000000
Kd 0.286275 0.756863 0.592157
Ks 1.000000 1.000000 1.000000
Ke 0.000000 0.000000 0.000000
Ni 1.450000
d 1.000000
illum 3

newmtl roofLight.008
Ns 0.000000
Ka 1.000000 1.000000 1.000000
Kd 0.286275 0.756863 0.592157
Ks 1.000000 1.000000 1.000000
Ke 0.000000 0.000000 0.000000
Ni 1.450000
d 1.000000
illum 3

newmtl roofLight.009
Ns 0.000000
Ka 1.000000 1.000000 1.000000
Kd 0.286275 0.756863 0.592157
Ks 1.000000 1.000000 1.000000
Ke 0.000000 0.000000 0.000000
Ni 1.450000
d 1.000000
illum 3

newmtl roofLight.010
Ns 0.000000
Ka 1.000000 1.000000 1.000000
Kd 0.286275 0.756863 0.592157
Ks 1.000000 1.000000 1.000000
Ke 0.000000 0.000000 0.000000
Ni 1.450000
d 1.000000
illum 3

newmtl roofLight.011
Ns 0.000000
Ka 1.000000 1.000000 1.000000
Kd 0.286275 0.756863 0.592157
Ks 1.000000 1.000000 1.000000
Ke 0.000000 0.000000 0.000000
Ni 1.450000
d 1.000000
illum 3

newmtl roofRed
Ns 0.000000
Ka 1.000000 1.000000 1.000000
Kd 0.678431 0.258824 0.298039
Ks 1.000000 1.000000 1.000000
Ke 0.000000 0.000000 0.000000
Ni 1.450000
d 1.000000
illum 3

newmtl roofRed.001
Ns 0.000000
Ka 1.000000 1.000000 1.000000
Kd 0.678431 0.258824 0.298039
Ks 1.000000 1.000000 1.000000
Ke 0.000000 0.000000 0.000000
Ni 1.450000
d 1.000000
illum 3

newmtl roofRed.002
Ns 0.000000
Ka 1.000000 1.000000 1.000000
Kd 0.678431 0.258824 0.298039
Ks 1.000000 1.000000 1.000000
Ke 0.000000 0.000000 0.000000
Ni 1.450000
d 1.000000
illum 3

newmtl roofRed.003
Ns 0.000000
Ka 1.000000 1.000000 1.000000
Kd 0.678431 0.258824 0.298039
Ks 1.000000 1.000000 1.000000
Ke 0.000000 0.000000 0.000000
Ni 1.450000
d 1.000000
illum 3

newmtl roofRed.004
Ns 0.000000
Ka 1.000000 1.000000 1.000000
Kd 0.678431 0.258824 0.298039
Ks 1.000000 1.000000 1.000000
Ke 0.000000 0.000000 0.000000
Ni 1.450000
d 1.000000
illum 3

newmtl roofRed.005
Ns 0.000000
Ka 1.000000 1.000000 1.000000
Kd 0.678431 0.258824 0.298039
Ks 1.000000 1.000000 1.000000
Ke 0.000000 0.000000 0.000000
Ni 1.450000
d 1.000000
illum 3

newmtl roofRed.006
Ns 0.000000
Ka 1.000000 1.000000 1.000000
Kd 0.678431 0.258824 0.298039
Ks 1.000000 1.000000 1.000000
Ke 0.000000 0.000000 0.000000
Ni 1.450000
d 1.000000
illum 3

newmtl roofRed.007
Ns 0.000000
Ka 1.000000 1.000000 1.000000
Kd 0.678431 0.258824 0.298039
Ks 1.000000 1.000000 1.000000
Ke 0.000000 0.000000 0.000000
Ni 1.450000
d 1.000000
illum 3

newmtl roofRed.008
Ns 0.000000
Ka 1.000000 1.000000 1.000000
Kd 0.678431 0.258824 0.298039
Ks 1.000000 1.000000 1.000000
Ke 0.000000 0.000000 0.000000
Ni 1.450000
d 1.000000
illum 3

newmtl roofRed.009
Ns 0.000000
Ka 1.000000 1.000000 1.000000
Kd 0.678431 0.258824 0.298039
Ks 1.000000 1.000000 1.000000
Ke 0.000000 0.000000 0.000000
Ni 1.450000
d 1.000000
illum 3

newmtl roofRed.010
Ns 0.000000
Ka 1.000000 1.000000 1.000000
Kd 0.678431 0.258824 0.298039
Ks 1.000000 1.000000 1.000000
Ke 0.000000 0.000000 0.000000
Ni 1.450000
d 1.000000
illum 3

newmtl roofRed.011
Ns 0.000000
Ka 1.000000 1.000000 1.000000
Kd 0.678431 0.258824 0.298039
Ks 1.000000 1.000000 1.000000
Ke 0.000000 0.000000 0.000000
Ni 1.450000
d 1.000000
illum 3

newmtl roofRed.012
Ns 0.000000
Ka 1.000000 1.000000 1.000000
Kd 0.678431 0.258824 0.298039
Ks 1.000000 1.000000 1.000000
Ke 0.000000 0.000000 0.000000
Ni 1.450000
d 1.000000
illum 3

newmtl roofRed.013
Ns 0.000000
Ka 1.000000 1.000000 1.000000
Kd 0.678431 0.258824 0.298039
Ks 1.000000 1.000000 1.000000
Ke 0.000000 0.000000 0.000000
Ni 1.450000
d 1.000000
illum 3

newmtl roofRed.014
Ns 0.000000
Ka 1.000000 1.000000 1.000000
Kd 0.678431 0.258824 0.298039
Ks 1.000000 1.000000 1.000000
Ke 0.000000 0.000000 0.000000
Ni 1.450000
d 1.000000
illum 3

newmtl roofRedLight
Ns 0.000000
Ka 1.000000 1.000000 1.000000
Kd 0.847059 0.321569 0.372549
Ks 1.000000 1.000000 1.000000
Ke 0.000000 0.000000 0.000000
Ni 1.450000
d 1.000000
illum 3

newmtl roofRedLight.001
Ns 0.000000
Ka 1.000000 1.000000 1.000000
Kd 0.847059 0.321569 0.372549
Ks 1.000000 1.000000 1.000000
Ke 0.000000 0.000000 0.000000
Ni 1.450000
d 1.000000
illum 3

newmtl roofRedLight.002
Ns 0.000000
Ka 1.000000 1.000000 1.000000
Kd 0.847059 0.321569 0.372549
Ks 1.000000 1.000000 1.000000
Ke 0.000000 0.000000 0.000000
Ni 1.450000
d 1.000000
illum 3

newmtl roofRedLight.003
Ns 0.000000
Ka 1.000000 1.000000 1.000000
Kd 0.847059 0.321569 0.372549
Ks 1.000000 1.000000 1.000000
Ke 0.000000 0.000000 0.000000
Ni 1.450000
d 1.000000
illum 3

newmtl roofRedLight.004
Ns 0.000000
Ka 1.000000 1.000000 1.000000
Kd 0.847059 0.321569 0.372549
Ks 1.000000 1.000000 1.000000
Ke 0.000000 0.000000 0.000000
Ni 1.450000
d 1.000000
illum 3

newmtl roofRedLight.005
Ns 0.000000
Ka 1.000000 1.000000 1.000000
Kd 0.847059 0.321569 0.372549
Ks 1.000000 1.000000 1.000000
Ke 0.000000 0.000000 0.000000
Ni 1.450000
d 1.000000
illum 3

newmtl roofRedLight.006
Ns 0.000000
Ka 1.000000 1.000000 1.000000
Kd 0.847059 0.321569 0.372549
Ks 1.000000 1.000000 1.000000
Ke 0.000000 0.000000 0.000000
Ni 1.450000
d 1.000000
illum 3

newmtl roofRedLight.007
Ns 0.000000
Ka 1.000000 1.000000 1.000000
Kd 0.847059 0.321569 0.372549
Ks 1.000000 1.000000 1.000000
Ke 0.000000 0.000000 0.000000
Ni 1.450000
d 1.000000
illum 3

newmtl roofRedLight.008
Ns 0.000000
Ka 1.000000 1.000000 1.000000
Kd 0.847059 0.321569 0.372549
Ks 1.000000 1.000000 1.000000
Ke 0.000000 0.000000 0.000000
Ni 1.450000
d 1.000000
illum 3

newmtl roofRedLight.009
Ns 0.000000
Ka 1.000000 1.000000 1.000000
Kd 0.847059 0.321569 0.372549
Ks 1.000000 1.000000 1.000000
Ke 0.000000 0.000000 0.000000
Ni 1.450000
d 1.000000
illum 3

newmtl roofRedLight.010
Ns 0.000000
Ka 1.000000 1.000000 1.000000
Kd 0.847059 0.321569 0.372549
Ks 1.000000 1.000000 1.000000
Ke 0.000000 0.000000 0.000000
Ni 1.450000
d 1.000000
illum 3

newmtl roofRedLight.011
Ns 0.000000
Ka 1.000000 1.000000 1.000000
Kd 0.847059 0.321569 0.372549
Ks 1.000000 1.000000 1.000000
Ke 0.000000 0.000000 0.000000
Ni 1.450000
d 1.000000
illum 3

newmtl stone
Ns 0.000000
Ka 1.000000 1.000000 1.000000
Kd 0.603922 0.733333 0.788235
Ks 1.000000 1.000000 1.000000
Ke 0.000000 0.000000 0.000000
Ni 1.450000
d 1.000000
illum 3

newmtl stone.001
Ns 0.000000
Ka 1.000000 1.000000 1.000000
Kd 0.603922 0.733333 0.788235
Ks 1.000000 1.000000 1.000000
Ke 0.000000 0.000000 0.000000
Ni 1.450000
d 1.000000
illum 3

newmtl stone.002
Ns 0.000000
Ka 1.000000 1.000000 1.000000
Kd 0.603922 0.733333 0.788235
Ks 1.000000 1.000000 1.000000
Ke 0.000000 0.000000 0.000000
Ni 1.450000
d 1.000000
illum 3

newmtl stone.003
Ns 0.000000
Ka 1.000000 1.000000 1.000000
Kd 0.603922 0.733333 0.788235
Ks 1.000000 1.000000 1.000000
Ke 0.000000 0.000000 0.000000
Ni 1.450000
d 1.000000
illum 3

newmtl stone.004
Ns 0.000000
Ka 1.000000 1.000000 1.000000
Kd 0.603922 0.733333 0.788235
Ks 1.000000 1.000000 1.000000
Ke 0.000000 0.000000 0.000000
Ni 1.450000
d 1.000000
illum 3

newmtl stone.005
Ns 0.000000
Ka 1.000000 1.000000 1.000000
Kd 0.603922 0.733333 0.788235
Ks 1.000000 1.000000 1.000000
Ke 0.000000 0.000000 0.000000
Ni 1.450000
d 1.000000
illum 3

newmtl stone.006
Ns 0.000000
Ka 1.000000 1.000000 1.000000
Kd 0.603922 0.733333 0.788235
Ks 1.000000 1.000000 1.000000
Ke 0.000000 0.000000 0.000000
Ni 1.450000
d 1.000000
illum 3

newmtl stone.007
Ns 0.000000
Ka 1.000000 1.000000 1.000000
Kd 0.603922 0.733333 0.788235
Ks 1.000000 1.000000 1.000000
Ke 0.000000 0.000000 0.000000
Ni 1.450000
d 1.000000
illum 3

newmtl stone.008
Ns 0.000000
Ka 1.000000 1.000000 1.000000
Kd 0.603922 0.733333 0.788235
Ks 1.000000 1.000000 1.000000
Ke 0.000000 0.000000 0.000000
Ni 1.450000
d 1.000000
illum 3

newmtl stone.009
Ns 0.000000
Ka 1.000000 1.000000 1.000000
Kd 0.603922 0.733333 0.788235
Ks 1.000000 1.000000 1.000000
Ke 0.000000 0.000000 0.000000
Ni 1.450000
d 1.000000
illum 3

newmtl stone.010
Ns 0.000000
Ka 1.000000 1.000000 1.000000
Kd 0.603922 0.733333 0.788235
Ks 1.000000 1.000000 1.000000
Ke 0.000000 0.000000 0.000000
Ni 1.450000
d 1.000000
illum 3

newmtl stone.011
Ns 0.000000
Ka 1.000000 1.000000 1.000000
Kd 0.603922 0.733333 0.788235
Ks 1.000000 1.000000 1.000000
Ke 0.000000 0.000000 0.000000
Ni 1.450000
d 1.000000
illum 3

newmtl stone.012
Ns 0.000000
Ka 1.000000 1.000000 1.000000
Kd 0.603922 0.733333 0.788235
Ks 1.000000 1.000000 1.000000
Ke 0.000000 0.000000 0.000000
Ni 1.450000
d 1.000000
illum 3

newmtl stone.013
Ns 0.000000
Ka 1.000000 1.000000 1.000000
Kd 0.603922 0.733333 0.788235
Ks 1.000000 1.000000 1.000000
Ke 0.000000 0.000000 0.000000
Ni 1.450000
d 1.000000
illum 3

newmtl stone.014
Ns 0.000000
Ka 1.000000 1.000000 1.000000
Kd 0.603922 0.733333 0.788235
Ks 1.000000 1.000000 1.000000
Ke 0.000000 0.000000 0.000000
Ni 1.450000
d 1.000000
illum 3

newmtl stone.015
Ns 0.000000
Ka 1.000000 1.000000 1.000000
Kd 0.603922 0.733333 0.788235
Ks 1.000000 1.000000 1.000000
Ke 0.000000 0.000000 0.000000
Ni 1.450000
d 1.000000
illum 3

newmtl stone.016
Ns 0.000000
Ka 1.000000 1.000000 1.000000
Kd 0.603922 0.733333 0.788235
Ks 1.000000 1.000000 1.000000
Ke 0.000000 0.000000 0.000000
Ni 1.450000
d 1.000000
illum 3

newmtl stone.017
Ns 0.000000
Ka 1.000000 1.000000 1.000000
Kd 0.603922 0.733333 0.788235
Ks 1.000000 1.000000 1.000000
Ke 0.000000 0.000000 0.000000
Ni 1.450000
d 1.000000
illum 3

newmtl stone.018
Ns 0.000000
Ka 1.000000 1.000000 1.000000
Kd 0.603922 0.733333 0.788235
Ks 1.000000 1.000000 1.000000
Ke 0.000000 0.000000 0.000000
Ni 1.450000
d 1.000000
illum 3

newmtl stone.019
Ns 0.000000
Ka 1.000000 1.000000 1.000000
Kd 0.603922 0.733333 0.788235
Ks 1.000000 1.000000 1.000000
Ke 0.000000 0.000000 0.000000
Ni 1.450000
d 1.000000
illum 3

newmtl stone.020
Ns 0.000000
Ka 1.000000 1.000000 1.000000
Kd 0.603922 0.733333 0.788235
Ks 1.000000 1.000000 1.000000
Ke 0.000000 0.000000 0.000000
Ni 1.450000
d 1.000000
illum 3

newmtl stone.021
Ns 0.000000
Ka 1.000000 1.000000 1.000000
Kd 0.603922 0.733333 0.788235
Ks 1.000000 1.000000 1.000000
Ke 0.000000 0.000000 0.000000
Ni 1.450000
d 1.000000
illum 3

newmtl stone.022
Ns 0.000000
Ka 1.000000 1.000000 1.000000
Kd 0.603922 0.733333 0.788235
Ks 1.000000 1.000000 1.000000
Ke 0.000000 0.000000 0.000000
Ni 1.450000
d 1.000000
illum 3

newmtl stone.023
Ns 0.000000
Ka 1.000000 1.000000 1.000000
Kd 0.603922 0.733333 0.788235
Ks 1.000000 1.000000 1.000000
Ke 0.000000 0.000000 0.000000
Ni 1.450000
d 1.000000
illum 3

newmtl stone.024
Ns 0.000000
Ka 1.000000 1.000000 1.000000
Kd 0.603922 0.733333 0.788235
Ks 1.000000 1.000000 1.000000
Ke 0.000000 0.000000 0.000000
Ni 1.450000
d 1.000000
illum 3

newmtl stone.025
Ns 0.000000
Ka 1.000000 1.000000 1.000000
Kd 0.603922 0.733333 0.788235
Ks 1.000000 1.000000 1.000000
Ke 0.000000 0.000000 0.000000
Ni 1.450000
d 1.000000
illum 3

newmtl stone.026
Ns 0.000000
Ka 1.000000 1.000000 1.000000
Kd 0.603922 0.733333 0.788235
Ks 1.000000 1.000000 1.000000
Ke 0.000000 0.000000 0.000000
Ni 1.450000
d 1.000000
illum 3

newmtl stone.027
Ns 0.000000
Ka 1.000000 1.000000 1.000000
Kd 0.603922 0.733333 0.788235
Ks 1.000000 1.000000 1.000000
Ke 0.000000 0.000000 0.000000
Ni 1.450000
d 1.000000
illum 3

newmtl stone.028
Ns 0.000000
Ka 1.000000 1.000000 1.000000
Kd 0.603922 0.733333 0.788235
Ks 1.000000 1.000000 1.000000
Ke 0.000000 0.000000 0.000000
Ni 1.450000
d 1.000000
illum 3

newmtl stone.029
Ns 0.000000
Ka 1.000000 1.000000 1.000000
Kd 0.603922 0.733333 0.788235
Ks 1.000000 1.000000 1.000000
Ke 0.000000 0.000000 0.000000
Ni 1.450000
d 1.000000
illum 3

newmtl stone.030
Ns 0.000000
Ka 1.000000 1.000000 1.000000
Kd 0.603922 0.733333 0.788235
Ks 1.000000 1.000000 1.000000
Ke 0.000000 0.000000 0.000000
Ni 1.450000
d 1.000000
illum 3

newmtl stone.031
Ns 0.000000
Ka 1.000000 1.000000 1.000000
Kd 0.603922 0.733333 0.788235
Ks 1.000000 1.000000 1.000000
Ke 0.000000 0.000000 0.000000
Ni 1.450000
d 1.000000
illum 3

newmtl stone.032
Ns 0.000000
Ka 1.000000 1.000000 1.000000
Kd 0.603922 0.733333 0.788235
Ks 1.000000 1.000000 1.000000
Ke 0.000000 0.000000 0.000000
Ni 1.450000
d 1.000000
illum 3

newmtl stone.033
Ns 0.000000
Ka 1.000000 1.000000 1.000000
Kd 0.603922 0.733333 0.788235
Ks 1.000000 1.000000 1.000000
Ke 0.000000 0.000000 0.000000
Ni 1.450000
d 1.000000
illum 3

newmtl stone.034
Ns 0.000000
Ka 1.000000 1.000000 1.000000
Kd 0.603922 0.733333 0.788235
Ks 1.000000 1.000000 1.000000
Ke 0.000000 0.000000 0.000000
Ni 1.450000
d 1.000000
illum 3

newmtl stone.035
Ns 0.000000
Ka 1.000000 1.000000 1.000000
Kd 0.603922 0.733333 0.788235
Ks 1.000000 1.000000 1.000000
Ke 0.000000 0.000000 0.000000
Ni 1.450000
d 1.000000
illum 3

newmtl stone.036
Ns 0.000000
Ka 1.000000 1.000000 1.000000
Kd 0.603922 0.733333 0.788235
Ks 1.000000 1.000000 1.000000
Ke 0.000000 0.000000 0.000000
Ni 1.450000
d 1.000000
illum 3

newmtl stone.037
Ns 0.000000
Ka 1.000000 1.000000 1.000000
Kd 0.603922 0.733333 0.788235
Ks 1.000000 1.000000 1.000000
Ke 0.000000 0.000000 0.000000
Ni 1.450000
d 1.000000
illum 3

newmtl stone.038
Ns 0.000000
Ka 1.000000 1.000000 1.000000
Kd 0.603922 0.733333 0.788235
Ks 1.000000 1.000000 1.000000
Ke 0.000000 0.000000 0.000000
Ni 1.450000
d 1.000000
illum 3

newmtl stone.039
Ns 0.000000
Ka 1.000000 1.000000 1.000000
Kd 0.603922 0.733333 0.788235
Ks 1.000000 1.000000 1.000000
Ke 0.000000 0.000000 0.000000
Ni 1.450000
d 1.000000
illum 3

newmtl stone.040
Ns 0.000000
Ka 1.000000 1.000000 1.000000
Kd 0.603922 0.733333 0.788235
Ks 1.000000 1.000000 1.000000
Ke 0.000000 0.000000 0.000000
Ni 1.450000
d 1.000000
illum 3

newmtl stone.041
Ns 0.000000
Ka 1.000000 1.000000 1.000000
Kd 0.603922 0.733333 0.788235
Ks 1.000000 1.000000 1.000000
Ke 0.000000 0.000000 0.000000
Ni 1.450000
d 1.000000
illum 3

newmtl stone.042
Ns 0.000000
Ka 1.000000 1.000000 1.000000
Kd 0.603922 0.733333 0.788235
Ks 1.000000 1.000000 1.000000
Ke 0.000000 0.000000 0.000000
Ni 1.450000
d 1.000000
illum 3

newmtl stone.043
Ns 0.000000
Ka 1.000000 1.000000 1.000000
Kd 0.603922 0.733333 0.788235
Ks 1.000000 1.000000 1.000000
Ke 0.000000 0.000000 0.000000
Ni 1.450000
d 1.000000
illum 3

newmtl stone.044
Ns 0.000000
Ka 1.000000 1.000000 1.000000
Kd 0.603922 0.733333 0.788235
Ks 1.000000 1.000000 1.000000
Ke 0.000000 0.000000 0.000000
Ni 1.450000
d 1.000000
illum 3

newmtl stone.045
Ns 0.000000
Ka 1.000000 1.000000 1.000000
Kd 0.603922 0.733333 0.788235
Ks 1.000000 1.000000 1.000000
Ke 0.000000 0.000000 0.000000
Ni 1.450000
d 1.000000
illum 3

newmtl stone.046
Ns 0.000000
Ka 1.000000 1.000000 1.000000
Kd 0.603922 0.733333 0.788235
Ks 1.000000 1.000000 1.000000
Ke 0.000000 0.000000 0.000000
Ni 1.450000
d 1.000000
illum 3

newmtl stone.047
Ns 0.000000
Ka 1.000000 1.000000 1.000000
Kd 0.603922 0.733333 0.788235
Ks 1.000000 1.000000 1.000000
Ke 0.000000 0.000000 0.000000
Ni 1.450000
d 1.000000
illum 3

newmtl stone.048
Ns 0.000000
Ka 1.000000 1.000000 1.000000
Kd 0.603922 0.733333 0.788235
Ks 1.000000 1.000000 1.000000
Ke 0.000000 0.000000 0.000000
Ni 1.450000
d 1.000000
illum 3

newmtl stone.049
Ns 0.000000
Ka 1.000000 1.000000 1.000000
Kd 0.603922 0.733333 0.788235
Ks 1.000000 1.000000 1.000000
Ke 0.000000 0.000000 0.000000
Ni 1.450000
d 1.000000
illum 3

newmtl stone.050
Ns 0.000000
Ka 1.000000 1.000000 1.000000
Kd 0.603922 0.733333 0.788235
Ks 1.000000 1.000000 1.000000
Ke 0.000000 0.000000 0.000000
Ni 1.450000
d 1.000000
illum 3

newmtl stone.051
Ns 0.000000
Ka 1.000000 1.000000 1.000000
Kd 0.603922 0.733333 0.788235
Ks 1.000000 1.000000 1.000000
Ke 0.000000 0.000000 0.000000
Ni 1.450000
d 1.000000
illum 3

newmtl stone.052
Ns 0.000000
Ka 1.000000 1.000000 1.000000
Kd 0.603922 0.733333 0.788235
Ks 1.000000 1.000000 1.000000
Ke 0.000000 0.000000 0.000000
Ni 1.450000
d 1.000000
illum 3

newmtl stone.053
Ns 0.000000
Ka 1.000000 1.000000 1.000000
Kd 0.603922 0.733333 0.788235
Ks 1.000000 1.000000 1.000000
Ke 0.000000 0.000000 0.000000
Ni 1.450000
d 1.000000
illum 3

newmtl stone.054
Ns 0.000000
Ka 1.000000 1.000000 1.000000
Kd 0.603922 0.733333 0.788235
Ks 1.000000 1.000000 1.000000
Ke 0.000000 0.000000 0.000000
Ni 1.450000
d 1.000000
illum 3

newmtl stone.055
Ns 0.000000
Ka 1.000000 1.000000 1.000000
Kd 0.603922 0.733333 0.788235
Ks 1.000000 1.000000 1.000000
Ke 0.000000 0.000000 0.000000
Ni 1.450000
d 1.000000
illum 3

newmtl stone.056
Ns 0.000000
Ka 1.000000 1.000000 1.000000
Kd 0.603922 0.733333 0.788235
Ks 1.000000 1.000000 1.000000
Ke 0.000000 0.000000 0.000000
Ni 1.450000
d 1.000000
illum 3

newmtl stone.057
Ns 0.000000
Ka 1.000000 1.000000 1.000000
Kd 0.603922 0.733333 0.788235
Ks 1.000000 1.000000 1.000000
Ke 0.000000 0.000000 0.000000
Ni 1.450000
d 1.000000
illum 3

newmtl stone.058
Ns 0.000000
Ka 1.000000 1.000000 1.000000
Kd 0.603922 0.733333 0.788235
Ks 1.000000 1.000000 1.000000
Ke 0.000000 0.000000 0.000000
Ni 1.450000
d 1.000000
illum 3

newmtl stone.059
Ns 0.000000
Ka 1.000000 1.000000 1.000000
Kd 0.603922 0.733333 0.788235
Ks 1.000000 1.000000 1.000000
Ke 0.000000 0.000000 0.000000
Ni 1.450000
d 1.000000
illum 3

newmtl stone.060
Ns 0.000000
Ka 1.000000 1.000000 1.000000
Kd 0.603922 0.733333 0.788235
Ks 1.000000 1.000000 1.000000
Ke 0.000000 0.000000 0.000000
Ni 1.450000
d 1.000000
illum 3

newmtl stone.061
Ns 0.000000
Ka 1.000000 1.000000 1.000000
Kd 0.603922 0.733333 0.788235
Ks 1.000000 1.000000 1.000000
Ke 0.000000 0.000000 0.000000
Ni 1.450000
d 1.000000
illum 3

newmtl stone.062
Ns 0.000000
Ka 1.000000 1.000000 1.000000
Kd 0.603922 0.733333 0.788235
Ks 1.000000 1.000000 1.000000
Ke 0.000000 0.000000 0.000000
Ni 1.450000
d 1.000000
illum 3

newmtl stone.063
Ns 0.000000
Ka 1.000000 1.000000 1.000000
Kd 0.603922 0.733333 0.788235
Ks 1.000000 1.000000 1.000000
Ke 0.000000 0.000000 0.000000
Ni 1.450000
d 1.000000
illum 3

newmtl stone.064
Ns 0.000000
Ka 1.000000 1.000000 1.000000
Kd 0.603922 0.733333 0.788235
Ks 1.000000 1.000000 1.000000
Ke 0.000000 0.000000 0.000000
Ni 1.450000
d 1.000000
illum 3

newmtl stone.065
Ns 0.000000
Ka 1.000000 1.000000 1.000000
Kd 0.603922 0.733333 0.788235
Ks 1.000000 1.000000 1.000000
Ke 0.000000 0.000000 0.000000
Ni 1.450000
d 1.000000
illum 3

newmtl stone.066
Ns 0.000000
Ka 1.000000 1.000000 1.000000
Kd 0.603922 0.733333 0.788235
Ks 1.000000 1.000000 1.000000
Ke 0.000000 0.000000 0.000000
Ni 1.450000
d 1.000000
illum 3

newmtl stone.067
Ns 0.000000
Ka 1.000000 1.000000 1.000000
Kd 0.603922 0.733333 0.788235
Ks 1.000000 1.000000 1.000000
Ke 0.000000 0.000000 0.000000
Ni 1.450000
d 1.000000
illum 3

newmtl stone.068
Ns 0.000000
Ka 1.000000 1.000000 1.000000
Kd 0.603922 0.733333 0.788235
Ks 1.000000 1.000000 1.000000
Ke 0.000000 0.000000 0.000000
Ni 1.450000
d 1.000000
illum 3

newmtl stone.069
Ns 0.000000
Ka 1.000000 1.000000 1.000000
Kd 0.603922 0.733333 0.788235
Ks 1.000000 1.000000 1.000000
Ke 0.000000 0.000000 0.000000
Ni 1.450000
d 1.000000
illum 3

newmtl stone.070
Ns 0.000000
Ka 1.000000 1.000000 1.000000
Kd 0.603922 0.733333 0.788235
Ks 1.000000 1.000000 1.000000
Ke 0.000000 0.000000 0.000000
Ni 1.450000
d 1.000000
illum 3

newmtl stone.071
Ns 0.000000
Ka 1.000000 1.000000 1.000000
Kd 0.603922 0.733333 0.788235
Ks 1.000000 1.000000 1.000000
Ke 0.000000 0.000000 0.000000
Ni 1.450000
d 1.000000
illum 3

newmtl stone.072
Ns 0.000000
Ka 1.000000 1.000000 1.000000
Kd 0.603922 0.733333 0.788235
Ks 1.000000 1.000000 1.000000
Ke 0.000000 0.000000 0.000000
Ni 1.450000
d 1.000000
illum 3

newmtl stone.073
Ns 0.000000
Ka 1.000000 1.000000 1.000000
Kd 0.603922 0.733333 0.788235
Ks 1.000000 1.000000 1.000000
Ke 0.000000 0.000000 0.000000
Ni 1.450000
d 1.000000
illum 3

newmtl stone.074
Ns 0.000000
Ka 1.000000 1.000000 1.000000
Kd 0.603922 0.733333 0.788235
Ks 1.000000 1.000000 1.000000
Ke 0.000000 0.000000 0.000000
Ni 1.450000
d 1.000000
illum 3

newmtl stone.075
Ns 0.000000
Ka 1.000000 1.000000 1.000000
Kd 0.603922 0.733333 0.788235
Ks 1.000000 1.000000 1.000000
Ke 0.000000 0.000000 0.000000
Ni 1.450000
d 1.000000
illum 3

newmtl stone.076
Ns 0.000000
Ka 1.000000 1.000000 1.000000
Kd 0.603922 0.733333 0.788235
Ks 1.000000 1.000000 1.000000
Ke 0.000000 0.000000 0.000000
Ni 1.450000
d 1.000000
illum 3

newmtl stone.077
Ns 0.000000
Ka 1.000000 1.000000 1.000000
Kd 0.603922 0.733333 0.788235
Ks 1.000000 1.000000 1.000000
Ke 0.000000 0.000000 0.000000
Ni 1.450000
d 1.000000
illum 3

newmtl stone.078
Ns 0.000000
Ka 1.000000 1.000000 1.000000
Kd 0.847059 0.827451 0.749020
Ks 0.330000 0.330000 0.330000
Ke 0.000000 0.000000 0.000000
Ni 1.450000
d 1.000000
illum 2

newmtl stoneDark
Ns 0.000000
Ka 1.000000 1.000000 1.000000
Kd 0.501961 0.611765 0.658824
Ks 1.000000 1.000000 1.000000
Ke 0.000000 0.000000 0.000000
Ni 1.450000
d 1.000000
illum 3

newmtl stoneDark.001
Ns 0.000000
Ka 1.000000 1.000000 1.000000
Kd 0.501961 0.611765 0.658824
Ks 1.000000 1.000000 1.000000
Ke 0.000000 0.000000 0.000000
Ni 1.450000
d 1.000000
illum 3

newmtl stoneDark.002
Ns 0.000000
Ka 1.000000 1.000000 1.000000
Kd 0.501961 0.611765 0.658824
Ks 1.000000 1.000000 1.000000
Ke 0.000000 0.000000 0.000000
Ni 1.450000
d 1.000000
illum 3

newmtl stoneDark.003
Ns 0.000000
Ka 1.000000 1.000000 1.000000
Kd 0.501961 0.611765 0.658824
Ks 1.000000 1.000000 1.000000
Ke 0.000000 0.000000 0.000000
Ni 1.450000
d 1.000000
illum 3

newmtl stoneDark.004
Ns 0.000000
Ka 1.000000 1.000000 1.000000
Kd 0.501961 0.611765 0.658824
Ks 1.000000 1.000000 1.000000
Ke 0.000000 0.000000 0.000000
Ni 1.450000
d 1.000000
illum 3

newmtl stoneDark.005
Ns 0.000000
Ka 1.000000 1.000000 1.000000
Kd 0.501961 0.611765 0.658824
Ks 1.000000 1.000000 1.000000
Ke 0.000000 0.000000 0.000000
Ni 1.450000
d 1.000000
illum 3

newmtl stoneDark.006
Ns 0.000000
Ka 1.000000 1.000000 1.000000
Kd 0.501961 0.611765 0.658824
Ks 1.000000 1.000000 1.000000
Ke 0.000000 0.000000 0.000000
Ni 1.450000
d 1.000000
illum 3

newmtl stoneDark.007
Ns 0.000000
Ka 1.000000 1.000000 1.000000
Kd 0.501961 0.611765 0.658824
Ks 1.000000 1.000000 1.000000
Ke 0.000000 0.000000 0.000000
Ni 1.450000
d 1.000000
illum 3

newmtl stoneDark.008
Ns 0.000000
Ka 1.000000 1.000000 1.000000
Kd 0.501961 0.611765 0.658824
Ks 1.000000 1.000000 1.000000
Ke 0.000000 0.000000 0.000000
Ni 1.450000
d 1.000000
illum 3

newmtl stoneDark.009
Ns 0.000000
Ka 1.000000 1.000000 1.000000
Kd 0.501961 0.611765 0.658824
Ks 1.000000 1.000000 1.000000
Ke 0.000000 0.000000 0.000000
Ni 1.450000
d 1.000000
illum 3

newmtl stoneDark.010
Ns 0.000000
Ka 1.000000 1.000000 1.000000
Kd 0.501961 0.611765 0.658824
Ks 1.000000 1.000000 1.000000
Ke 0.000000 0.000000 0.000000
Ni 1.450000
d 1.000000
illum 3

newmtl stoneDark.011
Ns 0.000000
Ka 1.000000 1.000000 1.000000
Kd 0.501961 0.611765 0.658824
Ks 1.000000 1.000000 1.000000
Ke 0.000000 0.000000 0.000000
Ni 1.450000
d 1.000000
illum 3

newmtl stoneDark.012
Ns 0.000000
Ka 1.000000 1.000000 1.000000
Kd 0.501961 0.611765 0.658824
Ks 1.000000 1.000000 1.000000
Ke 0.000000 0.000000 0.000000
Ni 1.450000
d 1.000000
illum 3

newmtl stoneDark.013
Ns 0.000000
Ka 1.000000 1.000000 1.000000
Kd 0.501961 0.611765 0.658824
Ks 1.000000 1.000000 1.000000
Ke 0.000000 0.000000 0.000000
Ni 1.450000
d 1.000000
illum 3

newmtl stoneDark.014
Ns 0.000000
Ka 1.000000 1.000000 1.000000
Kd 0.501961 0.611765 0.658824
Ks 1.000000 1.000000 1.000000
Ke 0.000000 0.000000 0.000000
Ni 1.450000
d 1.000000
illum 3

newmtl stoneDark.015
Ns 0.000000
Ka 1.000000 1.000000 1.000000
Kd 0.501961 0.611765 0.658824
Ks 1.000000 1.000000 1.000000
Ke 0.000000 0.000000 0.000000
Ni 1.450000
d 1.000000
illum 3

newmtl stoneDark.016
Ns 0.000000
Ka 1.000000 1.000000 1.000000
Kd 0.501961 0.611765 0.658824
Ks 1.000000 1.000000 1.000000
Ke 0.000000 0.000000 0.000000
Ni 1.450000
d 1.000000
illum 3

newmtl stoneDark.017
Ns 0.000000
Ka 1.000000 1.000000 1.000000
Kd 0.501961 0.611765 0.658824
Ks 1.000000 1.000000 1.000000
Ke 0.000000 0.000000 0.000000
Ni 1.450000
d 1.000000
illum 3

newmtl stoneDark.018
Ns 0.000000
Ka 1.000000 1.000000 1.000000
Kd 0.501961 0.611765 0.658824
Ks 1.000000 1.000000 1.000000
Ke 0.000000 0.000000 0.000000
Ni 1.450000
d 1.000000
illum 3

newmtl stoneDark.019
Ns 0.000000
Ka 1.000000 1.000000 1.000000
Kd 0.501961 0.611765 0.658824
Ks 1.000000 1.000000 1.000000
Ke 0.000000 0.000000 0.000000
Ni 1.450000
d 1.000000
illum 3

newmtl stoneDark.020
Ns 0.000000
Ka 1.000000 1.000000 1.000000
Kd 0.501961 0.611765 0.658824
Ks 1.000000 1.000000 1.000000
Ke 0.000000 0.000000 0.000000
Ni 1.450000
d 1.000000
illum 3

newmtl stoneDark.021
Ns 0.000000
Ka 1.000000 1.000000 1.000000
Kd 0.501961 0.611765 0.658824
Ks 1.000000 1.000000 1.000000
Ke 0.000000 0.000000 0.000000
Ni 1.450000
d 1.000000
illum 3

newmtl stoneDark.022
Ns 0.000000
Ka 1.000000 1.000000 1.000000
Kd 0.501961 0.611765 0.658824
Ks 1.000000 1.000000 1.000000
Ke 0.000000 0.000000 0.000000
Ni 1.450000
d 1.000000
illum 3

newmtl stoneDark.023
Ns 0.000000
Ka 1.000000 1.000000 1.000000
Kd 0.501961 0.611765 0.658824
Ks 1.000000 1.000000 1.000000
Ke 0.000000 0.000000 0.000000
Ni 1.450000
d 1.000000
illum 3

newmtl stoneDark.024
Ns 0.000000
Ka 1.000000 1.000000 1.000000
Kd 0.501961 0.611765 0.658824
Ks 1.000000 1.000000 1.000000
Ke 0.000000 0.000000 0.000000
Ni 1.450000
d 1.000000
illum 3

newmtl stoneDark.025
Ns 0.000000
Ka 1.000000 1.000000 1.000000
Kd 0.501961 0.611765 0.658824
Ks 1.000000 1.000000 1.000000
Ke 0.000000 0.000000 0.000000
Ni 1.450000
d 1.000000
illum 3

newmtl stoneDark.026
Ns 0.000000
Ka 1.000000 1.000000 1.000000
Kd 0.501961 0.611765 0.658824
Ks 1.000000 1.000000 1.000000
Ke 0.000000 0.000000 0.000000
Ni 1.450000
d 1.000000
illum 3

newmtl stoneDark.027
Ns 0.000000
Ka 1.000000 1.000000 1.000000
Kd 0.501961 0.611765 0.658824
Ks 1.000000 1.000000 1.000000
Ke 0.000000 0.000000 0.000000
Ni 1.450000
d 1.000000
illum 3

newmtl stoneDark.028
Ns 0.000000
Ka 1.000000 1.000000 1.000000
Kd 0.501961 0.611765 0.658824
Ks 1.000000 1.000000 1.000000
Ke 0.000000 0.000000 0.000000
Ni 1.450000
d 1.000000
illum 3

newmtl stoneDark.029
Ns 0.000000
Ka 1.000000 1.000000 1.000000
Kd 0.501961 0.611765 0.658824
Ks 1.000000 1.000000 1.000000
Ke 0.000000 0.000000 0.000000
Ni 1.450000
d 1.000000
illum 3

newmtl stoneDark.030
Ns 0.000000
Ka 1.000000 1.000000 1.000000
Kd 0.501961 0.611765 0.658824
Ks 1.000000 1.000000 1.000000
Ke 0.000000 0.000000 0.000000
Ni 1.450000
d 1.000000
illum 3

newmtl stoneDark.031
Ns 0.000000
Ka 1.000000 1.000000 1.000000
Kd 0.501961 0.611765 0.658824
Ks 1.000000 1.000000 1.000000
Ke 0.000000 0.000000 0.000000
Ni 1.450000
d 1.000000
illum 3

newmtl stoneDark.032
Ns 0.000000
Ka 1.000000 1.000000 1.000000
Kd 0.501961 0.611765 0.658824
Ks 1.000000 1.000000 1.000000
Ke 0.000000 0.000000 0.000000
Ni 1.450000
d 1.000000
illum 3

newmtl stoneDark.033
Ns 0.000000
Ka 1.000000 1.000000 1.000000
Kd 0.501961 0.611765 0.658824
Ks 1.000000 1.000000 1.000000
Ke 0.000000 0.000000 0.000000
Ni 1.450000
d 1.000000
illum 3

newmtl stoneDark.034
Ns 0.000000
Ka 1.000000 1.000000 1.000000
Kd 0.501961 0.611765 0.658824
Ks 1.000000 1.000000 1.000000
Ke 0.000000 0.000000 0.000000
Ni 1.450000
d 1.000000
illum 3

newmtl stoneDark.035
Ns 0.000000
Ka 1.000000 1.000000 1.000000
Kd 0.501961 0.611765 0.658824
Ks 1.000000 1.000000 1.000000
Ke 0.000000 0.000000 0.000000
Ni 1.450000
d 1.000000
illum 3

newmtl stoneDark.036
Ns 0.000000
Ka 1.000000 1.000000 1.000000
Kd 0.501961 0.611765 0.658824
Ks 1.000000 1.000000 1.000000
Ke 0.000000 0.000000 0.000000
Ni 1.450000
d 1.000000
illum 3

newmtl stoneDark.037
Ns 0.000000
Ka 1.000000 1.000000 1.000000
Kd 0.501961 0.611765 0.658824
Ks 1.000000 1.000000 1.000000
Ke 0.000000 0.000000 0.000000
Ni 1.450000
d 1.000000
illum 3

newmtl water
Ns 323.999994
Ka 1.000000 1.000000 1.000000
Kd 0.254902 0.854902 1.000000
Ks 0.500000 0.500000 0.500000
Ke 0.000000 0.000000 0.000000
Ni 1.000000
d 1.000000
illum 2

newmtl water.001
Ns 323.999994
Ka 1.000000 1.000000 1.000000
Kd 0.254902 0.854902 1.000000
Ks 0.500000 0.500000 0.500000
Ke 0.000000 0.000000 0.000000
Ni 1.000000
d 1.000000
illum 2

newmtl water.002
Ns 323.999994
Ka 1.000000 1.000000 1.000000
Kd 0.254902 0.854902 1.000000
Ks 0.500000 0.500000 0.500000
Ke 0.000000 0.000000 0.000000
Ni 1.000000
d 1.000000
illum 2

newmtl water.003
Ns 323.999994
Ka 1.000000 1.000000 1.000000
Kd 0.254902 0.854902 1.000000
Ks 0.500000 0.500000 0.500000
Ke 0.000000 0.000000 0.000000
Ni 1.000000
d 1.000000
illum 2

newmtl water.004
Ns 323.999994
Ka 1.000000 1.000000 1.000000
Kd 0.254902 0.854902 1.000000
Ks 0.500000 0.500000 0.500000
Ke 0.000000 0.000000 0.000000
Ni 1.000000
d 1.000000
illum 2

newmtl water.005
Ns 323.999994
Ka 1.000000 1.000000 1.000000
Kd 0.254902 0.854902 1.000000
Ks 0.500000 0.500000 0.500000
Ke 0.000000 0.000000 0.000000
Ni 1.000000
d 1.000000
illum 2

newmtl water.006
Ns 323.999994
Ka 1.000000 1.000000 1.000000
Kd 0.254902 0.854902 1.000000
Ks 0.500000 0.500000 0.500000
Ke 0.000000 0.000000 0.000000
Ni 1.000000
d 1.000000
illum 2

newmtl water.007
Ns 323.999994
Ka 1.000000 1.000000 1.000000
Kd 0.254902 0.854902 1.000000
Ks 0.500000 0.500000 0.500000
Ke 0.000000 0.000000 0.000000
Ni 1.000000
d 1.000000
illum 2

newmtl water.008
Ns 323.999994
Ka 1.000000 1.000000 1.000000
Kd 0.254902 0.854902 1.000000
Ks 0.500000 0.500000 0.500000
Ke 0.000000 0.000000 0.000000
Ni 1.000000
d 1.000000
illum 2

newmtl water.009
Ns 323.999994
Ka 1.000000 1.000000 1.000000
Kd 0.254902 0.854902 1.000000
Ks 0.500000 0.500000 0.500000
Ke 0.000000 0.000000 0.000000
Ni 1.000000
d 1.000000
illum 2

newmtl wood
Ns 0.000000
Ka 1.000000 1.000000 1.000000
Kd 0.909804 0.549020 0.349020
Ks 1.000000 1.000000 1.000000
Ke 0.000000 0.000000 0.000000
Ni 1.450000
d 1.000000
illum 3

newmtl wood.001
Ns 0.000000
Ka 1.000000 1.000000 1.000000
Kd 0.909804 0.549020 0.349020
Ks 1.000000 1.000000 1.000000
Ke 0.000000 0.000000 0.000000
Ni 1.450000
d 1.000000
illum 3

newmtl wood.002
Ns 0.000000
Ka 1.000000 1.000000 1.000000
Kd 0.909804 0.549020 0.349020
Ks 1.000000 1.000000 1.000000
Ke 0.000000 0.000000 0.000000
Ni 1.450000
d 1.000000
illum 3

newmtl wood.003
Ns 0.000000
Ka 1.000000 1.000000 1.000000
Kd 0.909804 0.549020 0.349020
Ks 1.000000 1.000000 1.000000
Ke 0.000000 0.000000 0.000000
Ni 1.450000
d 1.000000
illum 3

newmtl wood.004
Ns 0.000000
Ka 1.000000 1.000000 1.000000
Kd 0.909804 0.549020 0.349020
Ks 1.000000 1.000000 1.000000
Ke 0.000000 0.000000 0.000000
Ni 1.450000
d 1.000000
illum 3

newmtl wood.005
Ns 0.000000
Ka 1.000000 1.000000 1.000000
Kd 0.909804 0.549020 0.349020
Ks 1.000000 1.000000 1.000000
Ke 0.000000 0.000000 0.000000
Ni 1.450000
d 1.000000
illum 3

newmtl wood.006
Ns 0.000000
Ka 1.000000 1.000000 1.000000
Kd 0.909804 0.549020 0.349020
Ks 1.000000 1.000000 1.000000
Ke 0.000000 0.000000 0.000000
Ni 1.450000
d 1.000000
illum 3

newmtl wood.007
Ns 0.000000
Ka 1.000000 1.000000 1.000000
Kd 0.909804 0.549020 0.349020
Ks 1.000000 1.000000 1.000000
Ke 0.000000 0.000000 0.000000
Ni 1.450000
d 1.000000
illum 3

newmtl wood.008
Ns 0.000000
Ka 1.000000 1.000000 1.000000
Kd 0.909804 0.549020 0.349020
Ks 1.000000 1.000000 1.000000
Ke 0.000000 0.000000 0.000000
Ni 1.450000
d 1.000000
illum 3

newmtl wood.009
Ns 0.000000
Ka 1.000000 1.000000 1.000000
Kd 0.909804 0.549020 0.349020
Ks 1.000000 1.000000 1.000000
Ke 0.000000 0.000000 0.000000
Ni 1.450000
d 1.000000
illum 3

newmtl wood.010
Ns 0.000000
Ka 1.000000 1.000000 1.000000
Kd 0.909804 0.549020 0.349020
Ks 1.000000 1.000000 1.000000
Ke 0.000000 0.000000 0.000000
Ni 1.450000
d 1.000000
illum 3

newmtl wood.011
Ns 0.000000
Ka 1.000000 1.000000 1.000000
Kd 0.909804 0.549020 0.349020
Ks 1.000000 1.000000 1.000000
Ke 0.000000 0.000000 0.000000
Ni 1.450000
d 1.000000
illum 3

newmtl wood.012
Ns 0.000000
Ka 1.000000 1.000000 1.000000
Kd 0.909804 0.549020 0.349020
Ks 1.000000 1.000000 1.000000
Ke 0.000000 0.000000 0.000000
Ni 1.450000
d 1.000000
illum 3

newmtl wood.013
Ns 0.000000
Ka 1.000000 1.000000 1.000000
Kd 0.909804 0.549020 0.349020
Ks 1.000000 1.000000 1.000000
Ke 0.000000 0.000000 0.000000
Ni 1.450000
d 1.000000
illum 3

newmtl wood.014
Ns 0.000000
Ka 1.000000 1.000000 1.000000
Kd 0.909804 0.549020 0.349020
Ks 1.000000 1.000000 1.000000
Ke 0.000000 0.000000 0.000000
Ni 1.450000
d 1.000000
illum 3

newmtl wood.015
Ns 0.000000
Ka 1.000000 1.000000 1.000000
Kd 0.909804 0.549020 0.349020
Ks 1.000000 1.000000 1.000000
Ke 0.000000 0.000000 0.000000
Ni 1.450000
d 1.000000
illum 3

newmtl wood.016
Ns 0.000000
Ka 1.000000 1.000000 1.000000
Kd 0.909804 0.549020 0.349020
Ks 1.000000 1.000000 1.000000
Ke 0.000000 0.000000 0.000000
Ni 1.450000
d 1.000000
illum 3

newmtl wood.017
Ns 0.000000
Ka 1.000000 1.000000 1.000000
Kd 0.909804 0.549020 0.349020
Ks 1.000000 1.000000 1.000000
Ke 0.000000 0.000000 0.000000
Ni 1.450000
d 1.000000
illum 3

newmtl wood.018
Ns 0.000000
Ka 1.000000 1.000000 1.000000
Kd 0.909804 0.549020 0.349020
Ks 1.000000 1.000000 1.000000
Ke 0.000000 0.000000 0.000000
Ni 1.450000
d 1.000000
illum 3

newmtl wood.019
Ns 0.000000
Ka 1.000000 1.000000 1.000000
Kd 0.909804 0.549020 0.349020
Ks 1.000000 1.000000 1.000000
Ke 0.000000 0.000000 0.000000
Ni 1.450000
d 1.000000
illum 3

newmtl wood.020
Ns 0.000000
Ka 1.000000 1.000000 1.000000
Kd 0.909804 0.549020 0.349020
Ks 1.000000 1.000000 1.000000
Ke 0.000000 0.000000 0.000000
Ni 1.450000
d 1.000000
illum 3

newmtl wood.021
Ns 0.000000
Ka 1.000000 1.000000 1.000000
Kd 0.909804 0.549020 0.349020
Ks 1.000000 1.000000 1.000000
Ke 0.000000 0.000000 0.000000
Ni 1.450000
d 1.000000
illum 3

newmtl wood.022
Ns 0.000000
Ka 1.000000 1.000000 1.000000
Kd 0.909804 0.549020 0.349020
Ks 1.000000 1.000000 1.000000
Ke 0.000000 0.000000 0.000000
Ni 1.450000
d 1.000000
illum 3

newmtl wood.023
Ns 0.000000
Ka 1.000000 1.000000 1.000000
Kd 0.909804 0.549020 0.349020
Ks 1.000000 1.000000 1.000000
Ke 0.000000 0.000000 0.000000
Ni 1.450000
d 1.000000
illum 3

newmtl wood.024
Ns 0.000000
Ka 1.000000 1.000000 1.000000
Kd 0.909804 0.549020 0.349020
Ks 1.000000 1.000000 1.000000
Ke 0.000000 0.000000 0.000000
Ni 1.450000
d 1.000000
illum 3

newmtl wood.025
Ns 0.000000
Ka 1.000000 1.000000 1.000000
Kd 0.909804 0.549020 0.349020
Ks 1.000000 1.000000 1.000000
Ke 0.000000 0.000000 0.000000
Ni 1.450000
d 1.000000
illum 3

newmtl wood.026
Ns 0.000000
Ka 1.000000 1.000000 1.000000
Kd 0.909804 0.549020 0.349020
Ks 1.000000 1.000000 1.000000
Ke 0.000000 0.000000 0.000000
Ni 1.450000
d 1.000000
illum 3

newmtl wood.027
Ns 0.000000
Ka 1.000000 1.000000 1.000000
Kd 0.909804 0.549020 0.349020
Ks 1.000000 1.000000 1.000000
Ke 0.000000 0.000000 0.000000
Ni 1.450000
d 1.000000
illum 3

newmtl wood.028
Ns 0.000000
Ka 1.000000 1.000000 1.000000
Kd 0.909804 0.549020 0.349020
Ks 1.000000 1.000000 1.000000
Ke 0.000000 0.000000 0.000000
Ni 1.450000
d 1.000000
illum 3

newmtl wood.029
Ns 0.000000
Ka 1.000000 1.000000 1.000000
Kd 0.909804 0.549020 0.349020
Ks 1.000000 1.000000 1.000000
Ke 0.000000 0.000000 0.000000
Ni 1.450000
d 1.000000
illum 3

newmtl wood.030
Ns 0.000000
Ka 1.000000 1.000000 1.000000
Kd 0.909804 0.549020 0.349020
Ks 1.000000 1.000000 1.000000
Ke 0.000000 0.000000 0.000000
Ni 1.450000
d 1.000000
illum 3

newmtl wood.031
Ns 0.000000
Ka 1.000000 1.000000 1.000000
Kd 0.909804 0.549020 0.349020
Ks 1.000000 1.000000 1.000000
Ke 0.000000 0.000000 0.000000
Ni 1.450000
d 1.000000
illum 3

newmtl wood.032
Ns 0.000000
Ka 1.000000 1.000000 1.000000
Kd 0.909804 0.549020 0.349020
Ks 1.000000 1.000000 1.000000
Ke 0.000000 0.000000 0.000000
Ni 1.450000
d 1.000000
illum 3

newmtl wood.033
Ns 0.000000
Ka 1.000000 1.000000 1.000000
Kd 0.909804 0.549020 0.349020
Ks 1.000000 1.000000 1.000000
Ke 0.000000 0.000000 0.000000
Ni 1.450000
d 1.000000
illum 3

newmtl wood.034
Ns 0.000000
Ka 1.000000 1.000000 1.000000
Kd 0.909804 0.549020 0.349020
Ks 1.000000 1.000000 1.000000
Ke 0.000000 0.000000 0.000000
Ni 1.450000
d 1.000000
illum 3

newmtl wood.035
Ns 0.000000
Ka 1.000000 1.000000 1.000000
Kd 0.909804 0.549020 0.349020
Ks 1.000000 1.000000 1.000000
Ke 0.000000 0.000000 0.000000
Ni 1.450000
d 1.000000
illum 3

newmtl wood.036
Ns 0.000000
Ka 1.000000 1.000000 1.000000
Kd 0.909804 0.549020 0.349020
Ks 1.000000 1.000000 1.000000
Ke 0.000000 0.000000 0.000000
Ni 1.450000
d 1.000000
illum 3

newmtl wood.037
Ns 0.000000
Ka 1.000000 1.000000 1.000000
Kd 0.909804 0.549020 0.349020
Ks 1.000000 1.000000 1.000000
Ke 0.000000 0.000000 0.000000
Ni 1.450000
d 1.000000
illum 3

newmtl wood.038
Ns 0.000000
Ka 1.000000 1.000000 1.000000
Kd 0.909804 0.549020 0.349020
Ks 1.000000 1.000000 1.000000
Ke 0.000000 0.000000 0.000000
Ni 1.450000
d 1.000000
illum 3

newmtl wood.039
Ns 0.000000
Ka 1.000000 1.000000 1.000000
Kd 0.909804 0.549020 0.349020
Ks 1.000000 1.000000 1.000000
Ke 0.000000 0.000000 0.000000
Ni 1.450000
d 1.000000
illum 3

newmtl wood.040
Ns 0.000000
Ka 1.000000 1.000000 1.000000
Kd 0.909804 0.549020 0.349020
Ks 1.000000 1.000000 1.000000
Ke 0.000000 0.000000 0.000000
Ni 1.450000
d 1.000000
illum 3

newmtl wood.041
Ns 0.000000
Ka 1.000000 1.000000 1.000000
Kd 0.909804 0.549020 0.349020
Ks 1.000000 1.000000 1.000000
Ke 0.000000 0.000000 0.000000
Ni 1.450000
d 1.000000
illum 3

newmtl wood.042
Ns 0.000000
Ka 1.000000 1.000000 1.000000
Kd 0.909804 0.549020 0.349020
Ks 1.000000 1.000000 1.000000
Ke 0.000000 0.000000 0.000000
Ni 1.450000
d 1.000000
illum 3

newmtl wood.043
Ns 0.000000
Ka 1.000000 1.000000 1.000000
Kd 0.909804 0.549020 0.349020
Ks 1.000000 1.000000 1.000000
Ke 0.000000 0.000000 0.000000
Ni 1.450000
d 1.000000
illum 3

newmtl wood.044
Ns 0.000000
Ka 1.000000 1.000000 1.000000
Kd 0.909804 0.549020 0.349020
Ks 1.000000 1.000000 1.000000
Ke 0.000000 0.000000 0.000000
Ni 1.450000
d 1.000000
illum 3

newmtl wood.045
Ns 0.000000
Ka 1.000000 1.000000 1.000000
Kd 0.909804 0.549020 0.349020
Ks 1.000000 1.000000 1.000000
Ke 0.000000 0.000000 0.000000
Ni 1.450000
d 1.000000
illum 3

newmtl wood.046
Ns 0.000000
Ka 1.000000 1.000000 1.000000
Kd 0.909804 0.549020 0.349020
Ks 1.000000 1.000000 1.000000
Ke 0.000000 0.000000 0.000000
Ni 1.450000
d 1.000000
illum 3

newmtl wood.047
Ns 0.000000
Ka 1.000000 1.000000 1.000000
Kd 0.909804 0.549020 0.349020
Ks 1.000000 1.000000 1.000000
Ke 0.000000 0.000000 0.000000
Ni 1.450000
d 1.000000
illum 3

newmtl wood.048
Ns 0.000000
Ka 1.000000 1.000000 1.000000
Kd 0.909804 0.549020 0.349020
Ks 1.000000 1.000000 1.000000
Ke 0.000000 0.000000 0.000000
Ni 1.450000
d 1.000000
illum 3

newmtl wood.049
Ns 0.000000
Ka 1.000000 1.000000 1.000000
Kd 0.909804 0.549020 0.349020
Ks 1.000000 1.000000 1.000000
Ke 0.000000 0.000000 0.000000
Ni 1.450000
d 1.000000
illum 3

newmtl wood.050
Ns 0.000000
Ka 1.000000 1.000000 1.000000
Kd 0.909804 0.549020 0.349020
Ks 1.000000 1.000000 1.000000
Ke 0.000000 0.000000 0.000000
Ni 1.450000
d 1.000000
illum 3

newmtl wood.051
Ns 0.000000
Ka 1.000000 1.000000 1.000000
Kd 0.909804 0.549020 0.349020
Ks 1.000000 1.000000 1.000000
Ke 0.000000 0.000000 0.000000
Ni 1.450000
d 1.000000
illum 3

newmtl wood.052
Ns 0.000000
Ka 1.000000 1.000000 1.000000
Kd 0.909804 0.549020 0.349020
Ks 1.000000 1.000000 1.000000
Ke 0.000000 0.000000 0.000000
Ni 1.450000
d 1.000000
illum 3

newmtl wood.053
Ns 0.000000
Ka 1.000000 1.000000 1.000000
Kd 0.909804 0.549020 0.349020
Ks 1.000000 1.000000 1.000000
Ke 0.000000 0.000000 0.000000
Ni 1.450000
d 1.000000
illum 3

newmtl wood.054
Ns 0.000000
Ka 1.000000 1.000000 1.000000
Kd 0.909804 0.549020 0.349020
Ks 1.000000 1.000000 1.000000
Ke 0.000000 0.000000 0.000000
Ni 1.450000
d 1.000000
illum 3

newmtl wood.055
Ns 0.000000
Ka 1.000000 1.000000 1.000000
Kd 0.909804 0.549020 0.349020
Ks 1.000000 1.000000 1.000000
Ke 0.000000 0.000000 0.000000
Ni 1.450000
d 1.000000
illum 3

newmtl wood.056
Ns 0.000000
Ka 1.000000 1.000000 1.000000
Kd 0.909804 0.549020 0.349020
Ks 1.000000 1.000000 1.000000
Ke 0.000000 0.000000 0.000000
Ni 1.450000
d 1.000000
illum 3

newmtl wood.057
Ns 0.000000
Ka 1.000000 1.000000 1.000000
Kd 0.909804 0.549020 0.349020
Ks 1.000000 1.000000 1.000000
Ke 0.000000 0.000000 0.000000
Ni 1.450000
d 1.000000
illum 3

newmtl wood.058
Ns 0.000000
Ka 1.000000 1.000000 1.000000
Kd 0.909804 0.549020 0.349020
Ks 1.000000 1.000000 1.000000
Ke 0.000000 0.000000 0.000000
Ni 1.450000
d 1.000000
illum 3

newmtl wood.059
Ns 0.000000
Ka 1.000000 1.000000 1.000000
Kd 0.909804 0.549020 0.349020
Ks 1.000000 1.000000 1.000000
Ke 0.000000 0.000000 0.000000
Ni 1.450000
d 1.000000
illum 3

newmtl wood.060
Ns 0.000000
Ka 1.000000 1.000000 1.000000
Kd 0.909804 0.549020 0.349020
Ks 1.000000 1.000000 1.000000
Ke 0.000000 0.000000 0.000000
Ni 1.450000
d 1.000000
illum 3

newmtl wood.061
Ns 0.000000
Ka 1.000000 1.000000 1.000000
Kd 0.909804 0.549020 0.349020
Ks 1.000000 1.000000 1.000000
Ke 0.000000 0.000000 0.000000
Ni 1.450000
d 1.000000
illum 3

newmtl wood.062
Ns 0.000000
Ka 1.000000 1.000000 1.000000
Kd 0.909804 0.549020 0.349020
Ks 1.000000 1.000000 1.000000
Ke 0.000000 0.000000 0.000000
Ni 1.450000
d 1.000000
illum 3

newmtl wood.063
Ns 0.000000
Ka 1.000000 1.000000 1.000000
Kd 0.909804 0.549020 0.349020
Ks 1.000000 1.000000 1.000000
Ke 0.000000 0.000000 0.000000
Ni 1.450000
d 1.000000
illum 3

newmtl wood.064
Ns 0.000000
Ka 1.000000 1.000000 1.000000
Kd 0.909804 0.549020 0.349020
Ks 1.000000 1.000000 1.000000
Ke 0.000000 0.000000 0.000000
Ni 1.450000
d 1.000000
illum 3

newmtl wood.065
Ns 0.000000
Ka 1.000000 1.000000 1.000000
Kd 0.909804 0.549020 0.349020
Ks 1.000000 1.000000 1.000000
Ke 0.000000 0.000000 0.000000
Ni 1.450000
d 1.000000
illum 3

newmtl wood.066
Ns 0.000000
Ka 1.000000 1.000000 1.000000
Kd 0.909804 0.549020 0.349020
Ks 1.000000 1.000000 1.000000
Ke 0.000000 0.000000 0.000000
Ni 1.450000
d 1.000000
illum 3

newmtl wood.067
Ns 0.000000
Ka 1.000000 1.000000 1.000000
Kd 0.909804 0.549020 0.349020
Ks 1.000000 1.000000 1.000000
Ke 0.000000 0.000000 0.000000
Ni 1.450000
d 1.000000
illum 3

newmtl wood.068
Ns 0.000000
Ka 1.000000 1.000000 1.000000
Kd 0.909804 0.549020 0.349020
Ks 1.000000 1.000000 1.000000
Ke 0.000000 0.000000 0.000000
Ni 1.450000
d 1.000000
illum 3

newmtl wood.069
Ns 0.000000
Ka 1.000000 1.000000 1.000000
Kd 0.909804 0.549020 0.349020
Ks 1.000000 1.000000 1.000000
Ke 0.000000 0.000000 0.000000
Ni 1.450000
d 1.000000
illum 3

newmtl wood.070
Ns 0.000000
Ka 1.000000 1.000000 1.000000
Kd 0.909804 0.549020 0.349020
Ks 1.000000 1.000000 1.000000
Ke 0.000000 0.000000 0.000000
Ni 1.450000
d 1.000000
illum 3

newmtl wood.071
Ns 0.000000
Ka 1.000000 1.000000 1.000000
Kd 0.909804 0.549020 0.349020
Ks 1.000000 1.000000 1.000000
Ke 0.000000 0.000000 0.000000
Ni 1.450000
d 1.000000
illum 3

newmtl wood.072
Ns 0.000000
Ka 1.000000 1.000000 1.000000
Kd 0.909804 0.549020 0.349020
Ks 1.000000 1.000000 1.000000
Ke 0.000000 0.000000 0.000000
Ni 1.450000
d 1.000000
illum 3

newmtl wood.073
Ns 0.000000
Ka 1.000000 1.000000 1.000000
Kd 0.909804 0.549020 0.349020
Ks 1.000000 1.000000 1.000000
Ke 0.000000 0.000000 0.000000
Ni 1.450000
d 1.000000
illum 3

newmtl wood.074
Ns 0.000000
Ka 1.000000 1.000000 1.000000
Kd 0.909804 0.549020 0.349020
Ks 1.000000 1.000000 1.000000
Ke 0.000000 0.000000 0.000000
Ni 1.450000
d 1.000000
illum 3

newmtl wood.075
Ns 0.000000
Ka 1.000000 1.000000 1.000000
Kd 0.909804 0.549020 0.349020
Ks 1.000000 1.000000 1.000000
Ke 0.000000 0.000000 0.000000
Ni 1.450000
d 1.000000
illum 3

newmtl wood.076
Ns 0.000000
Ka 1.000000 1.000000 1.000000
Kd 0.909804 0.549020 0.349020
Ks 1.000000 1.000000 1.000000
Ke 0.000000 0.000000 0.000000
Ni 1.450000
d 1.000000
illum 3

newmtl wood.077
Ns 0.000000
Ka 1.000000 1.000000 1.000000
Kd 0.909804 0.549020 0.349020
Ks 1.000000 1.000000 1.000000
Ke 0.000000 0.000000 0.000000
Ni 1.450000
d 1.000000
illum 3

newmtl wood.078
Ns 0.000000
Ka 1.000000 1.000000 1.000000
Kd 0.909804 0.549020 0.349020
Ks 1.000000 1.000000 1.000000
Ke 0.000000 0.000000 0.000000
Ni 1.450000
d 1.000000
illum 3

newmtl wood.079
Ns 0.000000
Ka 1.000000 1.000000 1.000000
Kd 0.909804 0.549020 0.349020
Ks 1.000000 1.000000 1.000000
Ke 0.000000 0.000000 0.000000
Ni 1.450000
d 1.000000
illum 3

newmtl wood.080
Ns 0.000000
Ka 1.000000 1.000000 1.000000
Kd 0.909804 0.549020 0.349020
Ks 1.000000 1.000000 1.000000
Ke 0.000000 0.000000 0.000000
Ni 1.450000
d 1.000000
illum 3

newmtl wood.081
Ns 0.000000
Ka 1.000000 1.000000 1.000000
Kd 0.909804 0.549020 0.349020
Ks 1.000000 1.000000 1.000000
Ke 0.000000 0.000000 0.000000
Ni 1.450000
d 1.000000
illum 3

newmtl wood.082
Ns 0.000000
Ka 1.000000 1.000000 1.000000
Kd 0.909804 0.549020 0.349020
Ks 1.000000 1.000000 1.000000
Ke 0.000000 0.000000 0.000000
Ni 1.450000
d 1.000000
illum 3

newmtl wood.083
Ns 0.000000
Ka 1.000000 1.000000 1.000000
Kd 0.909804 0.549020 0.349020
Ks 1.000000 1.000000 1.000000
Ke 0.000000 0.000000 0.000000
Ni 1.450000
d 1.000000
illum 3

newmtl wood.084
Ns 0.000000
Ka 1.000000 1.000000 1.000000
Kd 0.909804 0.549020 0.349020
Ks 1.000000 1.000000 1.000000
Ke 0.000000 0.000000 0.000000
Ni 1.450000
d 1.000000
illum 3

newmtl wood.085
Ns 0.000000
Ka 1.000000 1.000000 1.000000
Kd 0.909804 0.549020 0.349020
Ks 1.000000 1.000000 1.000000
Ke 0.000000 0.000000 0.000000
Ni 1.450000
d 1.000000
illum 3

newmtl wood.086
Ns 0.000000
Ka 1.000000 1.000000 1.000000
Kd 0.909804 0.549020 0.349020
Ks 1.000000 1.000000 1.000000
Ke 0.000000 0.000000 0.000000
Ni 1.450000
d 1.000000
illum 3

newmtl wood.087
Ns 0.000000
Ka 1.000000 1.000000 1.000000
Kd 0.909804 0.549020 0.349020
Ks 1.000000 1.000000 1.000000
Ke 0.000000 0.000000 0.000000
Ni 1.450000
d 1.000000
illum 3

newmtl wood.088
Ns 0.000000
Ka 1.000000 1.000000 1.000000
Kd 0.909804 0.549020 0.349020
Ks 1.000000 1.000000 1.000000
Ke 0.000000 0.000000 0.000000
Ni 1.450000
d 1.000000
illum 3

newmtl wood.089
Ns 0.000000
Ka 1.000000 1.000000 1.000000
Kd 0.909804 0.549020 0.349020
Ks 1.000000 1.000000 1.000000
Ke 0.000000 0.000000 0.000000
Ni 1.450000
d 1.000000
illum 3

newmtl wood.090
Ns 0.000000
Ka 1.000000 1.000000 1.000000
Kd 0.909804 0.549020 0.349020
Ks 1.000000 1.000000 1.000000
Ke 0.000000 0.000000 0.000000
Ni 1.450000
d 1.000000
illum 3

newmtl wood.091
Ns 0.000000
Ka 1.000000 1.000000 1.000000
Kd 0.909804 0.549020 0.349020
Ks 1.000000 1.000000 1.000000
Ke 0.000000 0.000000 0.000000
Ni 1.450000
d 1.000000
illum 3

newmtl wood.092
Ns 0.000000
Ka 1.000000 1.000000 1.000000
Kd 0.909804 0.549020 0.349020
Ks 1.000000 1.000000 1.000000
Ke 0.000000 0.000000 0.000000
Ni 1.450000
d 1.000000
illum 3

newmtl wood.093
Ns 0.000000
Ka 1.000000 1.000000 1.000000
Kd 0.909804 0.549020 0.349020
Ks 1.000000 1.000000 1.000000
Ke 0.000000 0.000000 0.000000
Ni 1.450000
d 1.000000
illum 3

newmtl wood.094
Ns 0.000000
Ka 1.000000 1.000000 1.000000
Kd 0.909804 0.549020 0.349020
Ks 1.000000 1.000000 1.000000
Ke 0.000000 0.000000 0.000000
Ni 1.450000
d 1.000000
illum 3

newmtl wood.095
Ns 0.000000
Ka 1.000000 1.000000 1.000000
Kd 0.909804 0.549020 0.349020
Ks 1.000000 1.000000 1.000000
Ke 0.000000 0.000000 0.000000
Ni 1.450000
d 1.000000
illum 3

newmtl wood.096
Ns 0.000000
Ka 1.000000 1.000000 1.000000
Kd 0.909804 0.549020 0.349020
Ks 1.000000 1.000000 1.000000
Ke 0.000000 0.000000 0.000000
Ni 1.450000
d 1.000000
illum 3

newmtl wood.097
Ns 0.000000
Ka 1.000000 1.000000 1.000000
Kd 0.909804 0.549020 0.349020
Ks 1.000000 1.000000 1.000000
Ke 0.000000 0.000000 0.000000
Ni 1.450000
d 1.000000
illum 3

newmtl wood.098
Ns 0.000000
Ka 1.000000 1.000000 1.000000
Kd 0.909804 0.549020 0.349020
Ks 1.000000 1.000000 1.000000
Ke 0.000000 0.000000 0.000000
Ni 1.450000
d 1.000000
illum 3

newmtl wood.099
Ns 0.000000
Ka 1.000000 1.000000 1.000000
Kd 0.909804 0.549020 0.349020
Ks 1.000000 1.000000 1.000000
Ke 0.000000 0.000000 0.000000
Ni 1.450000
d 1.000000
illum 3

newmtl wood.100
Ns 0.000000
Ka 1.000000 1.000000 1.000000
Kd 0.909804 0.549020 0.349020
Ks 1.000000 1.000000 1.000000
Ke 0.000000 0.000000 0.000000
Ni 1.450000
d 1.000000
illum 3

newmtl wood.101
Ns 0.000000
Ka 1.000000 1.000000 1.000000
Kd 0.909804 0.549020 0.349020
Ks 1.000000 1.000000 1.000000
Ke 0.000000 0.000000 0.000000
Ni 1.450000
d 1.000000
illum 3

newmtl wood.102
Ns 0.000000
Ka 1.000000 1.000000 1.000000
Kd 0.909804 0.549020 0.349020
Ks 1.000000 1.000000 1.000000
Ke 0.000000 0.000000 0.000000
Ni 1.450000
d 1.000000
illum 3

newmtl wood.103
Ns 0.000000
Ka 1.000000 1.000000 1.000000
Kd 0.909804 0.549020 0.349020
Ks 1.000000 1.000000 1.000000
Ke 0.000000 0.000000 0.000000
Ni 1.450000
d 1.000000
illum 3

newmtl wood.104
Ns 0.000000
Ka 1.000000 1.000000 1.000000
Kd 0.909804 0.549020 0.349020
Ks 1.000000 1.000000 1.000000
Ke 0.000000 0.000000 0.000000
Ni 1.450000
d 1.000000
illum 3

newmtl wood.105
Ns 0.000000
Ka 1.000000 1.000000 1.000000
Kd 0.909804 0.549020 0.349020
Ks 1.000000 1.000000 1.000000
Ke 0.000000 0.000000 0.000000
Ni 1.450000
d 1.000000
illum 3

newmtl wood.106
Ns 0.000000
Ka 1.000000 1.000000 1.000000
Kd 0.909804 0.549020 0.349020
Ks 1.000000 1.000000 1.000000
Ke 0.000000 0.000000 0.000000
Ni 1.450000
d 1.000000
illum 3

newmtl wood.107
Ns 0.000000
Ka 1.000000 1.000000 1.000000
Kd 0.909804 0.549020 0.349020
Ks 1.000000 1.000000 1.000000
Ke 0.000000 0.000000 0.000000
Ni 1.450000
d 1.000000
illum 3

newmtl wood.108
Ns 0.000000
Ka 1.000000 1.000000 1.000000
Kd 0.909804 0.549020 0.349020
Ks 1.000000 1.000000 1.000000
Ke 0.000000 0.000000 0.000000
Ni 1.450000
d 1.000000
illum 3

newmtl wood.109
Ns 0.000000
Ka 1.000000 1.000000 1.000000
Kd 0.909804 0.549020 0.349020
Ks 1.000000 1.000000 1.000000
Ke 0.000000 0.000000 0.000000
Ni 1.450000
d 1.000000
illum 3

newmtl woodDark
Ns 0.000000
Ka 1.000000 1.000000 1.000000
Kd 0.776471 0.466667 0.294118
Ks 1.000000 1.000000 1.000000
Ke 0.000000 0.000000 0.000000
Ni 1.450000
d 1.000000
illum 3

newmtl woodDark.001
Ns 0.000000
Ka 1.000000 1.000000 1.000000
Kd 0.776471 0.466667 0.294118
Ks 1.000000 1.000000 1.000000
Ke 0.000000 0.000000 0.000000
Ni 1.450000
d 1.000000
illum 3

newmtl woodDark.002
Ns 0.000000
Ka 1.000000 1.000000 1.000000
Kd 0.776471 0.466667 0.294118
Ks 1.000000 1.000000 1.000000
Ke 0.000000 0.000000 0.000000
Ni 1.450000
d 1.000000
illum 3

newmtl woodDark.003
Ns 0.000000
Ka 1.000000 1.000000 1.000000
Kd 0.776471 0.466667 0.294118
Ks 1.000000 1.000000 1.000000
Ke 0.000000 0.000000 0.000000
Ni 1.450000
d 1.000000
illum 3

newmtl woodDark.004
Ns 0.000000
Ka 1.000000 1.000000 1.000000
Kd 0.776471 0.466667 0.294118
Ks 1.000000 1.000000 1.000000
Ke 0.000000 0.000000 0.000000
Ni 1.450000
d 1.000000
illum 3

newmtl woodDark.005
Ns 0.000000
Ka 1.000000 1.000000 1.000000
Kd 0.776471 0.466667 0.294118
Ks 1.000000 1.000000 1.000000
Ke 0.000000 0.000000 0.000000
Ni 1.450000
d 1.000000
illum 3

newmtl woodDark.006
Ns 0.000000
Ka 1.000000 1.000000 1.000000
Kd 0.776471 0.466667 0.294118
Ks 1.000000 1.000000 1.000000
Ke 0.000000 0.000000 0.000000
Ni 1.450000
d 1.000000
illum 3

newmtl woodDark.007
Ns 0.000000
Ka 1.000000 1.000000 1.000000
Kd 0.776471 0.466667 0.294118
Ks 1.000000 1.000000 1.000000
Ke 0.000000 0.000000 0.000000
Ni 1.450000
d 1.000000
illum 3

newmtl woodDark.008
Ns 0.000000
Ka 1.000000 1.000000 1.000000
Kd 0.776471 0.466667 0.294118
Ks 1.000000 1.000000 1.000000
Ke 0.000000 0.000000 0.000000
Ni 1.450000
d 1.000000
illum 3

newmtl woodDark.009
Ns 0.000000
Ka 1.000000 1.000000 1.000000
Kd 0.776471 0.466667 0.294118
Ks 1.000000 1.000000 1.000000
Ke 0.000000 0.000000 0.000000
Ni 1.450000
d 1.000000
illum 3

newmtl woodDark.010
Ns 0.000000
Ka 1.000000 1.000000 1.000000
Kd 0.776471 0.466667 0.294118
Ks 1.000000 1.000000 1.000000
Ke 0.000000 0.000000 0.000000
Ni 1.450000
d 1.000000
illum 3

newmtl woodDark.011
Ns 0.000000
Ka 1.000000 1.000000 1.000000
Kd 0.776471 0.466667 0.294118
Ks 1.000000 1.000000 1.000000
Ke 0.000000 0.000000 0.000000
Ni 1.450000
d 1.000000
illum 3

newmtl woodDark.012
Ns 0.000000
Ka 1.000000 1.000000 1.000000
Kd 0.776471 0.466667 0.294118
Ks 1.000000 1.000000 1.000000
Ke 0.000000 0.000000 0.000000
Ni 1.450000
d 1.000000
illum 3

newmtl woodDark.013
Ns 0.000000
Ka 1.000000 1.000000 1.000000
Kd 0.776471 0.466667 0.294118
Ks 1.000000 1.000000 1.000000
Ke 0.000000 0.000000 0.000000
Ni 1.450000
d 1.000000
illum 3

newmtl woodDark.014
Ns 0.000000
Ka 1.000000 1.000000 1.000000
Kd 0.776471 0.466667 0.294118
Ks 1.000000 1.000000 1.000000
Ke 0.000000 0.000000 0.000000
Ni 1.450000
d 1.000000
illum 3

newmtl woodDark.015
Ns 0.000000
Ka 1.000000 1.000000 1.000000
Kd 0.776471 0.466667 0.294118
Ks 1.000000 1.000000 1.000000
Ke 0.000000 0.000000 0.000000
Ni 1.450000
d 1.000000
illum 3

newmtl woodDark.016
Ns 0.000000
Ka 1.000000 1.000000 1.000000
Kd 0.776471 0.466667 0.294118
Ks 1.000000 1.000000 1.000000
Ke 0.000000 0.000000 0.000000
Ni 1.450000
d 1.000000
illum 3

newmtl woodDark.017
Ns 0.000000
Ka 1.000000 1.000000 1.000000
Kd 0.776471 0.466667 0.294118
Ks 1.000000 1.000000 1.000000
Ke 0.000000 0.000000 0.000000
Ni 1.450000
d 1.000000
illum 3

newmtl woodDark.018
Ns 0.000000
Ka 1.000000 1.000000 1.000000
Kd 0.776471 0.466667 0.294118
Ks 1.000000 1.000000 1.000000
Ke 0.000000 0.000000 0.000000
Ni 1.450000
d 1.000000
illum 3

newmtl woodDark.019
Ns 0.000000
Ka 1.000000 1.000000 1.000000
Kd 0.776471 0.466667 0.294118
Ks 1.000000 1.000000 1.000000
Ke 0.000000 0.000000 0.000000
Ni 1.450000
d 1.000000
illum 3

newmtl woodDark.020
Ns 0.000000
Ka 1.000000 1.000000 1.000000
Kd 0.776471 0.466667 0.294118
Ks 1.000000 1.000000 1.000000
Ke 0.000000 0.000000 0.000000
Ni 1.450000
d 1.000000
illum 3

newmtl woodDark.021
Ns 0.000000
Ka 1.000000 1.000000 1.000000
Kd 0.776471 0.466667 0.294118
Ks 1.000000 1.000000 1.000000
Ke 0.000000 0.000000 0.000000
Ni 1.450000
d 1.000000
illum 3

newmtl woodDark.022
Ns 0.000000
Ka 1.000000 1.000000 1.000000
Kd 0.776471 0.466667 0.294118
Ks 1.000000 1.000000 1.000000
Ke 0.000000 0.000000 0.000000
Ni 1.450000
d 1.000000
illum 3

newmtl woodDark.023
Ns 0.000000
Ka 1.000000 1.000000 1.000000
Kd 0.776471 0.466667 0.294118
Ks 1.000000 1.000000 1.000000
Ke 0.000000 0.000000 0.000000
Ni 1.450000
d 1.000000
illum 3

newmtl woodDark.024
Ns 0.000000
Ka 1.000000 1.000000 1.000000
Kd 0.776471 0.466667 0.294118
Ks 1.000000 1.000000 1.000000
Ke 0.000000 0.000000 0.000000
Ni 1.450000
d 1.000000
illum 3

newmtl woodDark.025
Ns 0.000000
Ka 1.000000 1.000000 1.000000
Kd 0.776471 0.466667 0.294118
Ks 1.000000 1.000000 1.000000
Ke 0.000000 0.000000 0.000000
Ni 1.450000
d 1.000000
illum 3

newmtl woodDark.026
Ns 0.000000
Ka 1.000000 1.000000 1.000000
Kd 0.776471 0.466667 0.294118
Ks 1.000000 1.000000 1.000000
Ke 0.000000 0.000000 0.000000
Ni 1.450000
d 1.000000
illum 3

newmtl woodDark.027
Ns 0.000000
Ka 1.000000 1.000000 1.000000
Kd 0.776471 0.466667 0.294118
Ks 1.000000 1.000000 1.000000
Ke 0.000000 0.000000 0.000000
Ni 1.450000
d 1.000000
illum 3

newmtl woodDark.028
Ns 0.000000
Ka 1.000000 1.000000 1.000000
Kd 0.776471 0.466667 0.294118
Ks 1.000000 1.000000 1.000000
Ke 0.000000 0.000000 0.000000
Ni 1.450000
d 1.000000
illum 3

newmtl woodDark.029
Ns 0.000000
Ka 1.000000 1.000000 1.000000
Kd 0.776471 0.466667 0.294118
Ks 1.000000 1.000000 1.000000
Ke 0.000000 0.000000 0.000000
Ni 1.450000
d 1.000000
illum 3

newmtl woodDark.030
Ns 0.000000
Ka 1.000000 1.000000 1.000000
Kd 0.776471 0.466667 0.294118
Ks 1.000000 1.000000 1.000000
Ke 0.000000 0.000000 0.000000
Ni 1.450000
d 1.000000
illum 3

newmtl woodDark.031
Ns 0.000000
Ka 1.000000 1.000000 1.000000
Kd 0.776471 0.466667 0.294118
Ks 1.000000 1.000000 1.000000
Ke 0.000000 0.000000 0.000000
Ni 1.450000
d 1.000000
illum 3

newmtl woodDark.032
Ns 0.000000
Ka 1.000000 1.000000 1.000000
Kd 0.776471 0.466667 0.294118
Ks 1.000000 1.000000 1.000000
Ke 0.000000 0.000000 0.000000
Ni 1.450000
d 1.000000
illum 3

newmtl woodDark.033
Ns 0.000000
Ka 1.000000 1.000000 1.000000
Kd 0.776471 0.466667 0.294118
Ks 1.000000 1.000000 1.000000
Ke 0.000000 0.000000 0.000000
Ni 1.450000
d 1.000000
illum 3

newmtl woodDark.034
Ns 0.000000
Ka 1.000000 1.000000 1.000000
Kd 0.776471 0.466667 0.294118
Ks 1.000000 1.000000 1.000000
Ke 0.000000 0.000000 0.000000
Ni 1.450000
d 1.000000
illum 3

newmtl woodDark.035
Ns 0.000000
Ka 1.000000 1.000000 1.000000
Kd 0.776471 0.466667 0.294118
Ks 1.000000 1.000000 1.000000
Ke 0.000000 0.000000 0.000000
Ni 1.450000
d 1.000000
illum 3

newmtl woodDark.036
Ns 0.000000
Ka 1.000000 1.000000 1.000000
Kd 0.776471 0.466667 0.294118
Ks 1.000000 1.000000 1.000000
Ke 0.000000 0.000000 0.000000
Ni 1.450000
d 1.000000
illum 3

newmtl woodDark.037
Ns 0.000000
Ka 1.000000 1.000000 1.000000
Kd 0.776471 0.466667 0.294118
Ks 1.000000 1.000000 1.000000
Ke 0.000000 0.000000 0.000000
Ni 1.450000
d 1.000000
illum 3

newmtl woodDark.038
Ns 0.000000
Ka 1.000000 1.000000 1.000000
Kd 0.776471 0.466667 0.294118
Ks 1.000000 1.000000 1.000000
Ke 0.000000 0.000000 0.000000
Ni 1.450000
d 1.000000
illum 3

newmtl woodDark.039
Ns 0.000000
Ka 1.000000 1.000000 1.000000
Kd 0.776471 0.466667 0.294118
Ks 1.000000 1.000000 1.000000
Ke 0.000000 0.000000 0.000000
Ni 1.450000
d 1.000000
illum 3

newmtl woodDark.040
Ns 0.000000
Ka 1.000000 1.000000 1.000000
Kd 0.776471 0.466667 0.294118
Ks 1.000000 1.000000 1.000000
Ke 0.000000 0.000000 0.000000
Ni 1.450000
d 1.000000
illum 3

newmtl woodDark.041
Ns 0.000000
Ka 1.000000 1.000000 1.000000
Kd 0.776471 0.466667 0.294118
Ks 1.000000 1.000000 1.000000
Ke 0.000000 0.000000 0.000000
Ni 1.450000
d 1.000000
illum 3

newmtl woodDark.042
Ns 0.000000
Ka 1.000000 1.000000 1.000000
Kd 0.776471 0.466667 0.294118
Ks 1.000000 1.000000 1.000000
Ke 0.000000 0.000000 0.000000
Ni 1.450000
d 1.000000
illum 3

newmtl woodDark.043
Ns 0.000000
Ka 1.000000 1.000000 1.000000
Kd 0.776471 0.466667 0.294118
Ks 1.000000 1.000000 1.000000
Ke 0.000000 0.000000 0.000000
Ni 1.450000
d 1.000000
illum 3

newmtl woodDark.044
Ns 0.000000
Ka 1.000000 1.000000 1.000000
Kd 0.776471 0.466667 0.294118
Ks 1.000000 1.000000 1.000000
Ke 0.000000 0.000000 0.000000
Ni 1.450000
d 1.000000
illum 3

newmtl woodDark.045
Ns 0.000000
Ka 1.000000 1.000000 1.000000
Kd 0.776471 0.466667 0.294118
Ks 1.000000 1.000000 1.000000
Ke 0.000000 0.000000 0.000000
Ni 1.450000
d 1.000000
illum 3

newmtl woodDark.046
Ns 0.000000
Ka 1.000000 1.000000 1.000000
Kd 0.776471 0.466667 0.294118
Ks 1.000000 1.000000 1.000000
Ke 0.000000 0.000000 0.000000
Ni 1.450000
d 1.000000
illum 3
