# Blender v2.82 (sub 7) OBJ File: 'town.blend'
# www.blender.org
mtllib tree1.mtl
o treeHighCrooked_Mesh_treeHighCrooked
v 2.123661 0.890903 8.153129
v 2.121699 0.846306 8.153129
v 2.123661 0.890903 8.108488
v 2.121699 0.846306 8.108488
v 2.123661 0.890903 8.153129
v 2.123661 0.890903 8.108488
v 2.220169 0.900350 8.166808
v 2.220169 0.900350 8.094809
v 2.426453 -0.000000 8.278074
v 2.137813 -0.000000 8.278074
v 2.375941 0.176480 8.227563
v 2.188325 0.176480 8.227563
v 2.426453 -0.000000 8.278074
v 2.375941 0.176480 8.227563
v 2.426453 0.000000 7.989435
v 2.375941 0.176480 8.039947
v 2.137813 0.000000 7.989435
v 2.426453 0.000000 7.989435
v 2.188325 0.176480 8.039947
v 2.375941 0.176480 8.039947
v 2.137813 -0.000000 8.278074
v 2.137813 0.000000 7.989435
v 2.188325 0.176480 8.227563
v 2.188325 0.176480 8.039947
v 2.137813 0.000000 7.989435
v 2.137813 -0.000000 8.278074
v 2.426453 0.000000 7.989435
v 2.426453 -0.000000 8.278074
v 2.217005 0.828420 8.094809
v 2.220169 0.900350 8.094809
v 2.121699 0.846306 8.108488
v 2.123661 0.890903 8.108488
v 2.217005 0.828420 8.166808
v 2.121699 0.846306 8.153129
v 2.220169 0.900350 8.166808
v 2.123661 0.890903 8.153129
v 2.121699 0.846306 8.108488
v 2.121699 0.846306 8.153129
v 2.217005 0.828420 8.094809
v 2.217005 0.828420 8.166808
v 2.375941 0.176480 8.039947
v 2.234333 0.558164 8.056738
v 2.188325 0.176480 8.039947
v 2.226552 1.045440 8.078174
v 2.234333 0.646079 8.060605
v 2.306333 0.646079 8.060605
v 2.306333 0.558164 8.056738
v 2.337714 1.045440 8.078174
v 2.226552 1.045440 8.189336
v 2.220169 0.900350 8.166808
v 2.226552 1.045440 8.078174
v 2.220169 0.900350 8.094809
v 2.217005 0.828420 8.094809
v 2.217005 0.828420 8.166808
v 2.188325 0.176480 8.227563
v 2.188325 0.176480 8.039947
v 2.375941 0.176480 8.227563
v 2.337714 1.045440 8.189336
v 2.375941 0.176480 8.039947
v 2.337714 1.045440 8.078174
v 2.188325 0.176480 8.227563
v 2.309201 0.299709 8.222142
v 2.375941 0.176480 8.227563
v 2.337714 1.045440 8.189336
v 2.309201 0.379632 8.218626
v 2.229201 0.379632 8.218626
v 2.229201 0.299709 8.222142
v 2.226552 1.045440 8.189336
v 2.252333 0.585065 7.945813
v 2.288333 0.585065 7.945813
v 2.252333 0.629022 7.947746
v 2.288333 0.629022 7.947746
v 2.234333 0.646079 8.060605
v 2.252333 0.629022 7.947746
v 2.306333 0.646079 8.060605
v 2.288333 0.629022 7.947746
v 2.306333 0.646079 8.060605
v 2.288333 0.629022 7.947746
v 2.306333 0.558164 8.056738
v 2.288333 0.585065 7.945813
v 2.234333 0.646079 8.060605
v 2.234333 0.558164 8.056738
v 2.252333 0.629022 7.947746
v 2.252333 0.585065 7.945813
v 2.234333 0.558164 8.056738
v 2.306333 0.558164 8.056738
v 2.252333 0.585065 7.945813
v 2.288333 0.585065 7.945813
v 2.294401 0.317571 8.291424
v 2.244001 0.317571 8.291424
v 2.294401 0.367922 8.289208
v 2.244001 0.367922 8.289208
v 2.244001 0.317571 8.291424
v 2.229201 0.299709 8.222142
v 2.244001 0.367922 8.289208
v 2.229201 0.379632 8.218626
v 2.294401 0.317571 8.291424
v 2.294401 0.367922 8.289208
v 2.309201 0.299709 8.222142
v 2.309201 0.379632 8.218626
v 2.229201 0.379632 8.218626
v 2.309201 0.379632 8.218626
v 2.244001 0.367922 8.289208
v 2.294401 0.367922 8.289208
v 2.229201 0.299709 8.222142
v 2.244001 0.317571 8.291424
v 2.309201 0.299709 8.222142
v 2.294401 0.317571 8.291424
v 1.901462 1.478026 8.160555
v 2.020613 1.463682 7.871273
v 1.994726 1.717237 8.137942
v 2.079323 1.707054 7.932552
v 2.281106 2.106595 7.933288
v 2.299271 2.318480 7.995648
v 2.139873 2.118703 7.992003
v 2.199103 2.317206 8.034061
v 2.382777 2.449185 8.228010
v 2.282133 2.972580 8.144674
v 2.424465 2.452521 8.127422
v 2.081372 2.123718 8.133755
v 2.139873 2.118703 7.992003
v 2.155303 2.313899 8.133755
v 2.199103 2.317206 8.034061
v 2.462227 1.881912 8.333405
v 2.422340 2.094487 8.275507
v 2.544622 1.874848 8.133755
v 2.480841 2.089472 8.133755
v 2.064386 1.916019 8.333405
v 1.981990 1.923083 8.133755
v 2.139873 2.118703 8.275507
v 2.081372 2.123718 8.133755
v 2.643818 1.045440 8.495440
v 2.282133 1.045440 8.645255
v 2.538929 1.331440 8.390552
v 2.282133 1.331440 8.496920
v 2.382777 2.449185 8.228010
v 2.282133 2.447802 8.269675
v 2.282133 2.972580 8.144674
v 2.020613 1.518142 8.447401
v 1.901462 1.478026 8.160555
v 2.079323 1.745720 8.341603
v 1.994726 1.717237 8.137942
v 2.645298 1.331440 8.133755
v 2.538929 1.331440 7.876958
v 2.793633 1.045440 8.133755
v 2.643818 1.045440 7.772070
v 2.480841 2.089472 8.133755
v 2.422340 2.094487 7.992003
v 2.544622 1.874848 8.133755
v 2.462227 1.881912 7.934105
v 1.920448 1.045440 7.772070
v 2.282133 1.045440 7.622255
v 2.025337 1.331440 7.876958
v 2.282133 1.331440 7.770590
v 2.480841 2.089472 8.133755
v 2.435413 2.313899 8.133755
v 2.422340 2.094487 7.992003
v 2.395740 2.317091 8.037520
v 2.282133 2.307615 8.323193
v 2.140382 2.309561 8.264509
v 2.282133 2.447802 8.269675
v 2.181489 2.449185 8.228010
v 2.020613 1.463682 7.871273
v 2.308269 1.483514 7.749012
v 2.079323 1.707054 7.932552
v 2.283559 1.721134 7.845747
v 2.423885 2.318961 7.981162
v 2.382777 2.455858 8.026834
v 2.282133 2.320908 7.922479
v 2.282133 2.457241 7.985169
v 2.263306 1.898965 7.851407
v 2.281106 2.106595 7.933288
v 2.064386 1.916019 7.934105
v 2.139873 2.118703 7.992003
v 2.081666 2.314261 8.122836
v 2.140382 2.309561 8.264509
v 2.140382 2.318961 7.981162
v 2.155303 2.313899 8.133755
v 2.199103 2.317206 8.034061
v 2.282133 2.320908 7.922479
v 2.299271 2.318480 7.995648
v 2.423885 2.318961 7.981162
v 2.395740 2.317091 8.037520
v 2.435413 2.313899 8.133755
v 2.482600 2.314261 8.122836
v 2.197115 2.310545 8.234859
v 2.282133 2.307615 8.323193
v 2.298478 2.309227 8.274585
v 2.423885 2.309561 8.264509
v 2.396508 2.310663 8.231304
v 2.423885 2.309561 8.264509
v 2.382777 2.449185 8.228010
v 2.482600 2.314261 8.122836
v 2.424465 2.452521 8.127422
v 1.918968 1.331440 8.133755
v 1.770633 1.045440 8.133755
v 2.025337 1.331440 7.876958
v 1.920448 1.045440 7.772070
v 2.282133 2.972580 8.144674
v 2.139802 2.452521 8.127422
v 2.181489 2.455858 8.026834
v 2.422340 2.094487 7.992003
v 2.395740 2.317091 8.037520
v 2.281106 2.106595 7.933288
v 2.299271 2.318480 7.995648
v 1.981990 1.923083 8.133755
v 2.048445 1.917386 8.119023
v 2.064386 1.916019 7.934105
v 2.111506 1.911979 7.967098
v 2.263306 1.898965 7.851407
v 2.264857 1.898833 7.896277
v 2.462227 1.881912 7.934105
v 2.436573 1.884111 7.952864
v 2.521932 1.876794 8.122860
v 2.544622 1.874848 8.133755
v 2.064386 1.916019 8.333405
v 2.106853 1.912378 8.279728
v 2.263306 1.898965 8.416103
v 2.269669 1.898420 8.362640
v 2.462227 1.881912 8.333405
v 2.449942 1.882965 8.301251
v 2.595925 1.580364 8.441519
v 2.487794 1.789897 8.337427
v 2.715075 1.566020 8.152237
v 2.572391 1.779713 8.132037
v 2.643818 1.045440 8.495440
v 2.538929 1.331440 8.390552
v 2.793633 1.045440 8.133755
v 2.645298 1.331440 8.133755
v 2.139802 2.452521 8.127422
v 2.081666 2.314261 8.122836
v 2.181489 2.455858 8.026834
v 2.140382 2.318961 7.981162
v 2.424465 2.452521 8.127422
v 2.282133 2.972580 8.144674
v 2.382777 2.455858 8.026834
v 2.282133 2.447802 8.269675
v 2.181489 2.449185 8.228010
v 2.282133 2.972580 8.144674
v 2.422340 2.094487 8.275507
v 2.396508 2.310663 8.231304
v 2.480841 2.089472 8.133755
v 2.435413 2.313899 8.133755
v 2.282133 2.972580 8.144674
v 2.181489 2.449185 8.228010
v 2.139802 2.452521 8.127422
v 2.462227 1.881912 7.934105
v 2.422340 2.094487 7.992003
v 2.263306 1.898965 7.851407
v 2.281106 2.106595 7.933288
v 2.181489 2.455858 8.026834
v 2.282133 2.457241 7.985169
v 2.282133 2.972580 8.144674
v 2.281106 2.106595 8.334222
v 2.139873 2.118703 8.275507
v 2.298478 2.309227 8.274585
v 2.197115 2.310545 8.234859
v 2.282133 1.045440 8.645255
v 1.920448 1.045440 8.495440
v 2.282133 1.331440 8.496920
v 2.025337 1.331440 8.390552
v 2.282133 2.457241 7.985169
v 2.382777 2.455858 8.026834
v 2.282133 2.972580 8.144674
v 2.424465 2.452521 8.127422
v 2.382777 2.455858 8.026834
v 2.482600 2.314261 8.122836
v 2.423885 2.318961 7.981162
v 2.282133 2.307615 8.323193
v 2.282133 2.447802 8.269675
v 2.423885 2.309561 8.264509
v 2.382777 2.449185 8.228010
v 2.079323 1.745720 8.341603
v 2.106853 1.912378 8.279728
v 2.283559 1.775817 8.424232
v 2.269669 1.898420 8.362640
v 2.140382 2.318961 7.981162
v 2.282133 2.320908 7.922479
v 2.181489 2.455858 8.026834
v 2.282133 2.457241 7.985169
v 2.308269 1.560532 8.563780
v 2.283559 1.775817 8.424232
v 2.595925 1.580364 8.441519
v 2.487794 1.789897 8.337427
v 2.140382 2.309561 8.264509
v 2.081666 2.314261 8.122836
v 2.181489 2.449185 8.228010
v 2.139802 2.452521 8.127422
v 2.462227 1.881912 8.333405
v 2.263306 1.898965 8.416103
v 2.422340 2.094487 8.275507
v 2.281106 2.106595 8.334222
v 2.282133 1.045440 7.622255
v 2.643818 1.045440 7.772070
v 2.282133 1.331440 7.770590
v 2.538929 1.331440 7.876958
v 2.079323 1.745720 8.341603
v 1.994726 1.717237 8.137942
v 2.106853 1.912378 8.279728
v 2.048445 1.917386 8.119023
v 2.263306 1.898965 8.416103
v 2.064386 1.916019 8.333405
v 2.281106 2.106595 8.334222
v 2.139873 2.118703 8.275507
v 1.920448 1.045440 8.495440
v 1.770633 1.045440 8.133755
v 2.025337 1.331440 8.390552
v 1.918968 1.331440 8.133755
v 2.538929 1.331440 8.390552
v 2.477257 1.556767 8.328879
v 2.645298 1.331440 8.133755
v 2.561655 1.547532 8.133755
v 2.025337 1.331440 7.876958
v 2.282133 1.331440 7.770590
v 2.063973 1.472604 7.915595
v 2.282133 1.488447 7.831363
v 2.282133 1.331440 7.770590
v 2.538929 1.331440 7.876958
v 2.282133 1.488447 7.831363
v 2.487314 1.520025 7.928575
v 2.283559 1.775817 8.424232
v 2.269669 1.898420 8.362640
v 2.487794 1.789897 8.337427
v 2.449942 1.882965 8.301251
v 2.715075 1.566020 8.152237
v 2.572391 1.779713 8.132037
v 2.595925 1.525904 7.865391
v 2.487794 1.751231 7.928377
v 2.025337 1.331440 8.390552
v 1.918968 1.331440 8.133755
v 2.075307 1.514013 8.340581
v 1.977958 1.483840 8.133755
v 2.139873 2.118703 8.275507
v 2.081372 2.123718 8.133755
v 2.197115 2.310545 8.234859
v 2.155303 2.313899 8.133755
v 1.901462 1.478026 8.160555
v 1.977958 1.483840 8.133755
v 2.020613 1.463682 7.871273
v 2.063973 1.472604 7.915595
v 2.308269 1.483514 7.749012
v 2.282133 1.488447 7.831363
v 2.487314 1.520025 7.928575
v 2.595925 1.525904 7.865391
v 2.561655 1.547532 8.133755
v 2.020613 1.518142 8.447401
v 2.075307 1.514013 8.340581
v 2.308269 1.560532 8.563780
v 2.282133 1.543598 8.414800
v 2.477257 1.556767 8.328879
v 2.595925 1.580364 8.441519
v 2.715075 1.566020 8.152237
v 2.081372 2.123718 8.133755
v 1.981990 1.923083 8.133755
v 2.139873 2.118703 7.992003
v 2.064386 1.916019 7.934105
v 2.308269 1.483514 7.749012
v 2.595925 1.525904 7.865391
v 2.283559 1.721134 7.845747
v 2.487794 1.751231 7.928377
v 2.422340 2.094487 8.275507
v 2.281106 2.106595 8.334222
v 2.396508 2.310663 8.231304
v 2.298478 2.309227 8.274585
v 2.282133 1.331440 8.496920
v 2.025337 1.331440 8.390552
v 2.282133 1.543598 8.414800
v 2.075307 1.514013 8.340581
v 2.283559 1.721134 7.845747
v 2.487794 1.751231 7.928377
v 2.264857 1.898833 7.896277
v 2.436573 1.884111 7.952864
v 1.994726 1.717237 8.137942
v 2.079323 1.707054 7.932552
v 2.048445 1.917386 8.119023
v 2.111506 1.911979 7.967098
v 2.079323 1.707054 7.932552
v 2.283559 1.721134 7.845747
v 2.111506 1.911979 7.967098
v 2.264857 1.898833 7.896277
v 1.918968 1.331440 8.133755
v 2.025337 1.331440 7.876958
v 1.977958 1.483840 8.133755
v 2.063973 1.472604 7.915595
v 2.572391 1.779713 8.132037
v 2.521932 1.876794 8.122860
v 2.487794 1.751231 7.928377
v 2.436573 1.884111 7.952864
v 2.020613 1.518142 8.447401
v 2.079323 1.745720 8.341603
v 2.308269 1.560532 8.563780
v 2.283559 1.775817 8.424232
v 2.538929 1.331440 8.390552
v 2.282133 1.331440 8.496920
v 2.477257 1.556767 8.328879
v 2.282133 1.543598 8.414800
v 2.487794 1.789897 8.337427
v 2.449942 1.882965 8.301251
v 2.572391 1.779713 8.132037
v 2.521932 1.876794 8.122860
v 2.645298 1.331440 8.133755
v 2.561655 1.547532 8.133755
v 2.538929 1.331440 7.876958
v 2.487314 1.520025 7.928575
v 1.770633 1.045440 8.133755
v 1.920448 1.045440 8.495440
v 1.920448 1.045440 7.772070
v 2.282133 1.045440 7.622255
v 2.226552 1.045440 8.078174
v 2.337714 1.045440 8.078174
v 2.643818 1.045440 7.772070
v 2.337714 1.045440 8.189336
v 2.226552 1.045440 8.189336
v 2.282133 1.045440 8.645255
v 2.643818 1.045440 8.495440
v 2.793633 1.045440 8.133755
vt -0.994747 34.766815
vt 0.762734 33.009335
vt 0.762734 34.766815
vt -0.994747 33.009335
vt 1.301316 1.025640
vt -0.994747 -2.792069
vt 0.762734 -2.792069
vt -1.533329 1.025640
vt -5.681890 5.681890
vt 5.681890 -5.681890
vt 5.681890 5.681890
vt -5.681890 -5.681890
vt 6.113060 33.306858
vt 2.199064 35.434635
vt 2.322400 32.602676
vt 6.036592 35.062672
vt -2.231765 35.436058
vt -6.145760 33.308281
vt -2.355101 32.604099
vt -6.069292 35.064098
vt -1.533329 8.535870
vt 0.762734 12.353579
vt -0.994747 12.353579
vt 1.301316 8.535870
vt 1.881899 21.820467
vt 2.188238 41.023117
vt 1.881899 25.285034
vt -0.952747 25.285034
vt -2.188238 41.023117
vt -0.952747 21.820467
vt -2.188238 41.023117
vt 1.301316 35.305397
vt 2.188238 41.023117
vt -1.533329 35.305397
vt -1.533329 32.470753
vt 1.301316 32.470753
vt 1.065666 11.635237
vt 2.188238 41.023117
vt 1.065666 14.784842
vt -2.083940 14.784842
vt -2.188238 41.023117
vt -2.083940 11.635237
vt 1.173237 24.418892
vt -0.244085 22.686609
vt 1.173237 22.686609
vt -0.244085 24.418892
vt -0.952747 0.953465
vt 1.173237 -3.540246
vt 1.881899 0.953465
vt -0.244085 -3.540246
vt 2.842792 21.964514
vt 7.191863 24.754286
vt 2.692453 25.425817
vt 7.267032 23.023634
vt -7.044566 24.747889
vt -2.695494 21.958117
vt -2.545156 25.419420
vt -7.119735 23.017237
vt 1.173237 12.619611
vt -0.952747 8.125899
vt 1.881899 8.125899
vt -0.244085 12.619611
vt 0.482989 14.202166
vt -1.501263 12.217914
vt 0.482989 12.217914
vt -1.501263 14.202166
vt 5.677850 14.459688
vt 2.974004 11.774009
vt 5.763173 12.477271
vt 2.838571 14.920702
vt -3.184445 11.783067
vt -5.888290 14.468745
vt -5.973614 12.486329
vt -3.049011 14.929760
vt -1.501263 -3.667112
vt 1.065666 -0.850283
vt -2.083940 -0.850283
vt 0.482989 -3.667112
vt 1.065666 6.315426
vt -1.501263 9.132256
vt -2.083940 6.315426
vt 0.482989 9.132256
vt 3.693228 5.663541
vt -5.681890 -1.563486
vt 5.681890 -1.563486
vt -3.693228 5.663541
vt 5.681890 -1.563486
vt -3.693228 5.663541
vt -5.681890 -1.563486
vt 3.693228 5.663541
vt 3.693228 5.663541
vt -5.681890 -1.563486
vt 5.681890 -1.563486
vt -3.693228 5.663541
vt 3.693228 5.663541
vt -5.681890 -1.563486
vt 5.681890 -1.563486
vt -3.693228 5.663541
vt 3.693228 6.779005
vt -3.693228 6.779005
vt 3.693228 6.779005
vt -3.693228 6.779005
vt 3.693228 6.779005
vt -2.188238 41.023117
vt -3.693228 6.779005
vt 2.188238 41.023117
vt 3.693228 6.779005
vt -3.693228 6.779005
vt 5.580773 9.031289
vt 5.580773 -2.130257
vt 7.892405 3.450516
vt 4.993334 3.020384
vt 3.268913 6.947484
vt 0.000000 11.342921
vt -0.674726 8.460645
vt -5.580773 9.031289
vt -4.472697 6.811230
vt -6.034625 3.020384
vt -7.892405 3.450516
vt 3.347164 -0.962311
vt 0.000000 -4.441888
vt -0.643494 -2.527154
vt -5.580773 -2.130257
vt -4.502940 -0.822240
vt -7.860243 14.984732
vt -0.579990 15.614636
vt 0.000000 18.240551
vt -6.561310 13.122792
vt -11.116063 7.124488
vt -9.349524 7.063215
vt -7.121710 0.277945
vt -7.860243 -0.735755
vt -0.428924 -3.094975
vt 0.000000 -3.991574
vt 7.860243 14.984732
vt 5.746955 13.306636
vt 11.116063 7.124488
vt 9.011253 6.873054
vt 7.860243 -0.735755
vt 1.069244 -6.165161
vt -7.841068 -0.611180
vt -10.610470 -2.213055
vt 0.868076 -3.707116
vt 12.122609 -0.700917
vt 8.998343 0.658150
vt 11.394765 9.358961
vt 16.074715 10.978797
vt 7.205544 16.938086
vt -16.074715 8.840310
vt -11.486143 7.702558
vt -12.122609 20.520023
vt -8.363104 15.853981
vt -0.776414 19.482687
vt -1.069244 25.984266
vt 10.610470 22.032162
vt 14.239572 14.239572
vt 14.239572 -14.239572
vt 20.137794 0.000000
vt 0.000000 20.137794
vt 2.188238 2.188238
vt -2.188238 2.188238
vt -14.239572 14.239572
vt -2.188238 -2.188238
vt 2.188238 -2.188238
vt 0.000000 -20.137794
vt -14.239572 -14.239572
vt -20.137794 0.000000
vt 4.614362 61.214664
vt -5.435337 50.730518
vt 6.880632 51.323605
vt -4.129976 60.793575
vt 3.205017 77.664925
vt -2.594382 85.888794
vt -2.814970 77.166496
vt 1.629265 85.836334
vt 2.412912 92.730614
vt -0.395923 113.782623
vt -1.873776 92.595535
vt 1.958750 84.232719
vt -2.936423 76.071304
vt 3.100522 76.281006
vt -2.328046 84.370995
vt 3.856086 68.609367
vt -3.118006 77.579216
vt -4.646888 68.897842
vt 2.919106 77.374397
vt 2.913013 72.879303
vt -4.669971 64.417946
vt 3.832408 64.112411
vt -3.123675 73.096230
vt 5.471544 41.563923
vt -7.706400 29.078148
vt 7.706400 29.078148
vt -5.471544 41.563923
vt -0.163326 114.203697
vt -2.033025 93.047585
vt 2.255429 93.103310
vt 5.029813 60.030563
vt -4.034273 48.683483
vt 8.178149 50.383953
vt -3.641006 58.823231
vt -7.706400 29.078148
vt 5.471544 41.563923
vt -5.471544 41.563923
vt 7.706400 29.078148
vt -3.856086 68.609367
vt 3.118006 77.579216
vt -2.919106 77.374397
vt 4.646888 68.897842
vt 5.471544 41.563923
vt -7.706400 29.078148
vt 7.706400 29.078148
vt -5.471544 41.563923
vt 3.097228 79.716835
vt -2.267876 88.505753
vt -2.940016 79.515938
vt 1.830145 88.633629
vt 2.024666 89.213478
vt -3.218187 83.441093
vt 2.821851 83.359802
vt -2.263761 89.271187
vt 4.031892 60.570293
vt -7.152791 51.306561
vt 5.150030 50.484715
vt -4.703111 61.153801
vt 3.222946 81.134750
vt -2.021778 86.905434
vt -2.817066 81.051506
vt 2.266630 86.964539
vt 5.229389 66.208122
vt -2.760157 74.286697
vt -3.247710 65.485222
vt 3.258583 74.799957
vt 3.500201 82.873116
vt -1.852775 88.543526
vt -2.537153 82.675598
vt 2.433747 88.683762
vt -5.471544 41.563923
vt 7.706400 29.078148
vt 5.471544 41.563923
vt -7.706400 29.078148
vt -2.414632 92.084381
vt 1.872028 91.948433
vt 0.398469 113.135818
vt 3.201961 79.081367
vt -2.577995 87.594818
vt -2.818741 78.591660
vt 1.562294 87.651001
vt 6.594358 -0.250329
vt 5.332137 42.592464
vt -4.646716 53.144066
vt -6.979558 43.268494
vt 4.094588 52.664085
vt 7.706400 29.078148
vt -5.471544 41.563923
vt -7.706400 29.078148
vt 5.471544 41.563923
vt -2.436599 87.729233
vt 2.532356 81.719460
vt 1.849877 87.587608
vt -3.504935 81.918930
vt 2.414632 92.084381
vt -0.398469 113.135818
vt -1.872028 91.948433
vt 0.163326 114.203697
vt -2.255429 93.103310
vt 2.033025 93.047585
vt 2.940016 79.515938
vt -1.866736 88.376129
vt -3.097228 79.716835
vt 2.267876 88.505753
vt -2.412912 92.730614
vt 1.873776 92.595535
vt 0.395923 113.782623
vt 5.206940 68.051788
vt -2.766488 76.146271
vt -3.271582 67.345787
vt 3.253263 76.647537
vt 0.165875 112.641685
vt -2.257159 91.541786
vt 2.031283 91.485199
vt 2.604015 85.507881
vt -3.205017 77.664925
vt 2.814970 77.166496
vt -1.682142 85.562126
vt 5.471544 41.563923
vt -7.706400 29.078148
vt 7.706400 29.078148
vt -5.471544 41.563923
vt -0.165875 112.641685
vt -2.031283 91.485199
vt 2.257159 91.541786
vt -2.532356 81.719460
vt 2.436599 87.729233
vt -1.849877 87.587608
vt 3.504935 81.918930
vt 3.218187 83.441093
vt -2.024666 89.213478
vt -2.821851 83.359802
vt 2.263761 89.271187
vt 4.921613 60.887009
vt -3.795841 66.690208
vt -3.738930 59.608044
vt 3.394068 66.097054
vt 2.021778 86.905434
vt -3.222946 81.134750
vt 2.817066 81.051506
vt -2.266630 86.964539
vt 7.280643 43.711861
vt -3.985020 52.876938
vt -5.014480 42.781925
vt 4.744517 53.537193
vt 1.852775 88.543526
vt -3.500201 82.873116
vt 2.537153 82.675598
vt -2.433747 88.683762
vt 2.766488 76.146271
vt -5.206940 68.051788
vt 3.271582 67.345787
vt -3.253263 76.647537
vt 5.471544 41.563923
vt -7.706400 29.078148
vt 7.706400 29.078148
vt -5.471544 41.563923
vt 2.973507 70.097847
vt -3.799196 62.110256
vt 4.877295 63.276123
vt -3.758142 70.302811
vt 2.760157 74.286697
vt -5.229389 66.208122
vt 3.247710 65.485222
vt -3.258583 74.799957
vt 5.471544 41.563923
vt -7.706400 29.078148
vt 7.706400 29.078148
vt -5.471544 41.563923
vt 5.471544 44.909832
vt -4.157493 54.331169
vt -5.471544 44.909832
vt 4.211351 53.945026
vt 4.648315 50.812126
vt -5.471544 44.909832
vt 5.471544 44.909832
vt -4.555923 51.474552
vt 4.555923 51.474552
vt -5.471544 44.909832
vt 5.471544 44.909832
vt -4.371766 52.794899
vt 4.653812 58.070526
vt -3.712545 62.865414
vt -4.078526 57.448406
vt 3.778628 62.182568
vt 3.898382 44.892426
vt -5.067451 56.317299
vt -8.298912 46.698215
vt 3.592628 55.035187
vt 4.406825 52.543537
vt -5.471544 44.909832
vt 5.471544 44.909832
vt -4.582788 51.281933
vt 2.348462 84.092484
vt -3.100522 76.281006
vt 2.936423 76.071304
vt -1.958750 84.232719
vt -2.913013 72.879303
vt 4.669971 64.417946
vt 3.123675 73.096230
vt -3.832408 64.112411
vt 3.590955 58.342789
vt -8.303063 50.009354
vt 3.893692 48.199936
vt -5.068742 59.627472
vt 2.584948 87.334824
vt -3.201961 79.081367
vt 2.818741 78.591660
vt -1.633900 87.276749
vt 4.234296 53.780514
vt -5.471544 44.909832
vt 5.471544 44.909832
vt -4.406825 52.543537
vt 3.785077 69.053001
vt -4.905715 62.980686
vt 3.760754 61.742512
vt -3.330838 68.447372
vt 3.051643 72.080910
vt -4.183004 63.618938
vt 4.561874 64.028656
vt -3.424325 71.863411
vt 3.495826 71.699593
vt -4.630343 64.010109
vt 4.105726 63.442783
vt -3.153386 71.169884
vt 4.582788 51.281933
vt -5.471544 44.909832
vt 5.471544 44.909832
vt -4.648315 50.812126
vt 3.770749 59.156986
vt -3.710738 64.532700
vt -4.898377 60.376415
vt 3.777375 64.845993
vt 8.394670 47.350250
vt -3.553897 55.605282
vt -3.789923 45.460659
vt 5.097163 56.946892
vt 4.157493 54.331169
vt -5.471544 44.909832
vt 5.471544 44.909832
vt -4.234296 53.780514
vt 4.162537 57.285019
vt -3.785429 61.865089
vt -4.580271 57.736763
vt 3.787124 61.591320
vt 5.471544 44.909832
vt -4.211351 53.945026
vt -5.471544 44.909832
vt 4.371766 52.794899
vn -0.9990 0.0440 0.0000
vn -0.9990 0.0439 0.0000
vn -0.0974 0.9952 0.0000
vn 0.0000 -1.0000 -0.0000
vn -0.1409 0.0062 -0.9900
vn -0.1409 0.0062 0.9900
vn -0.1844 -0.9828 0.0000
vn -0.1845 -0.9828 0.0000
vn 0.0007 0.0439 -0.9990
vn 0.0000 0.0439 -0.9990
vn -0.0001 0.0439 -0.9990
vn 0.0000 0.0440 0.9990
vn 0.0000 0.0439 0.9990
vn 0.0017 0.0440 0.9990
vn 0.0000 0.9888 -0.1494
vn 0.9873 0.0070 -0.1585
vn -0.9873 0.0070 -0.1585
vn 0.0000 -0.9718 -0.2357
vn -0.9784 0.0091 0.2067
vn 0.9784 0.0091 0.2067
vn 0.0000 0.9865 0.1637
vn 0.0000 -0.9683 0.2497
vn -0.0000 0.1714 0.9852
vn 0.0000 0.2752 0.9614
vn 0.9614 0.2752 0.0000
vn 0.9852 0.1714 -0.0000
vn 0.0000 0.1714 -0.9852
vn 0.0000 0.2752 -0.9614
vn -0.9852 0.1714 -0.0000
vn -0.9614 0.2752 0.0000
vn 0.9990 0.0439 0.0000
vn -0.0001 0.0439 0.9990
vn -0.0000 -0.9995 -0.0332
vn 0.0000 -0.9994 -0.0332
vn 0.0000 -0.9995 -0.0331
vn -0.0854 -0.9963 0.0000
vn 0.1080 -0.9897 0.0936
vn -0.8880 0.2610 -0.3787
vn -0.8750 0.3056 -0.3755
vn -0.3371 0.3348 -0.8799
vn -0.3457 0.2921 -0.8917
vn 0.8788 0.2964 0.3740
vn 0.8957 0.2326 0.3789
vn -0.8661 0.3367 -0.3694
vn -0.8507 0.3788 -0.3645
vn 0.8944 0.2658 0.3597
vn 0.9027 0.2285 0.3645
vn -0.8507 0.3788 0.3645
vn -0.8361 0.4142 0.3597
vn 0.3524 0.3897 0.8508
vn 0.3451 0.4321 0.8332
vn 0.3710 0.2152 0.9034
vn 0.3640 0.2793 0.8885
vn -0.8880 0.3274 0.3231
vn -0.8750 0.3706 0.3116
vn 0.8332 0.4321 -0.3451
vn 0.8508 0.3897 -0.3524
vn 0.8944 0.2658 -0.3597
vn 0.9027 0.2285 -0.3645
vn -0.3524 0.3897 -0.8508
vn -0.3451 0.4321 -0.8332
vn 0.9108 0.1844 -0.3694
vn -0.3640 0.2793 0.8885
vn -0.3567 0.3332 0.8728
vn -0.3568 0.3332 0.8728
vn -0.3925 0.2677 -0.8799
vn -0.3898 0.3122 -0.8664
vn 0.3567 0.3903 -0.8488
vn 0.3640 0.3376 -0.8681
vn -0.3293 0.3707 -0.8684
vn 0.8612 0.3499 0.3685
vn -0.8508 0.3897 -0.3524
vn -0.8332 0.4321 -0.3451
vn -0.8788 0.3205 -0.3536
vn -0.8957 0.2572 -0.3627
vn 0.3892 0.2725 -0.8799
vn 0.3904 0.2290 -0.8917
vn 0.3903 0.2290 -0.8917
vn 0.7816 0.5498 0.2947
vn 0.8038 0.5103 0.3058
vn 0.8332 0.4321 0.3451
vn 0.8508 0.3897 0.3524
vn -0.8612 0.3736 -0.3445
vn 0.8788 0.3205 -0.3536
vn 0.8957 0.2572 -0.3627
vn -0.3710 0.2152 0.9034
vn 0.9108 0.1844 0.3694
vn -0.8788 0.2964 0.3740
vn -0.8957 0.2326 0.3789
vn 0.3875 0.3093 -0.8684
vn 0.3875 0.3092 -0.8684
vn -0.3710 0.2746 -0.8871
vn -0.3640 0.3376 -0.8681
vn -0.3457 0.2921 0.8917
vn -0.3371 0.3348 0.8799
vn -0.3524 0.3897 0.8508
vn -0.3451 0.4321 0.8332
vn 0.3710 0.2746 -0.8871
vn 0.8612 0.3736 -0.3445
vn 0.3567 0.3332 0.8728
vn 0.3568 0.3332 0.8728
vn -0.3925 0.4279 0.8142
vn -0.3946 0.3764 0.8382
vn -0.3567 0.3903 -0.8488
vn 0.2964 0.5432 0.7855
vn 0.3083 0.5037 0.8070
vn -0.8612 0.3499 0.3685
vn 0.3892 0.2725 0.8799
vn 0.3875 0.3093 0.8684
vn 0.3524 0.3897 -0.8508
vn 0.3451 0.4321 -0.8332
vn -0.9012 0.2736 0.3361
vn -0.3292 0.3707 0.8684
vn -0.3293 0.3707 0.8684
vn -0.8508 0.3897 0.3524
vn -0.8332 0.4321 0.3451
vn 0.8699 0.3367 0.3603
vn -0.3603 0.3367 -0.8699
vn 0.3603 0.3367 -0.8699
vn 0.3219 0.4539 0.8309
vn 0.7816 0.4848 -0.3925
vn 0.8038 0.4440 -0.3960
vn -0.8699 0.3367 0.3603
vn -0.8661 0.3367 0.3694
vn -0.8361 0.4142 -0.3597
vn 0.3083 0.3435 -0.8871
vn 0.2964 0.3864 -0.8734
vn 0.3904 0.2290 0.8917
vn -0.3603 0.3367 0.8699
vn 0.3219 0.2901 -0.9012
vn -0.9012 0.2058 -0.3814
vn -0.3946 0.2127 -0.8939
vn -0.8699 0.3367 -0.3603
vn 0.8285 0.3929 -0.3991
vn -0.3898 0.4690 0.7925
vn 0.3603 0.3367 0.8699
vn 0.8285 0.4607 0.3184
vn 0.8699 0.3367 -0.3603
usemtl wood.043
s off
f 3/1/1 2/2/1 1/3/1
f 2/2/2 3/1/2 4/4/2
f 7/5/3 6/6/3 5/7/3
f 6/6/3 7/5/3 8/8/3
f 27/9/4 26/10/4 25/11/4
f 26/10/4 27/9/4 28/12/4
f 31/13/5 30/14/5 29/15/5
f 30/14/5 31/13/5 32/16/5
f 35/17/6 34/18/6 33/19/6
f 34/18/6 35/17/6 36/20/6
f 39/21/7 38/22/7 37/23/7
f 38/22/8 39/21/8 40/24/8
f 42/25/9 44/26/9 45/27/9
f 45/27/10 44/26/10 46/28/10
f 48/29/11 47/30/11 46/28/11
f 48/29/10 46/28/10 44/26/10
f 51/31/2 50/32/2 49/33/2
f 50/32/2 51/31/2 52/34/2
f 52/34/2 51/31/2 53/35/2
f 54/36/2 49/33/2 50/32/2
f 62/37/12 64/38/12 65/39/12
f 65/39/13 64/38/13 66/40/13
f 68/41/14 67/42/14 66/40/14
f 68/41/13 66/40/13 64/38/13
f 71/43/10 70/44/10 69/45/10
f 70/44/10 71/43/10 72/46/10
f 75/47/15 74/48/15 73/49/15
f 74/48/15 75/47/15 76/50/15
f 79/51/16 78/52/16 77/53/16
f 78/52/16 79/51/16 80/54/16
f 83/55/17 82/56/17 81/57/17
f 82/56/17 83/55/17 84/58/17
f 87/59/18 86/60/18 85/61/18
f 86/60/18 87/59/18 88/62/18
f 91/63/12 90/64/12 89/65/12
f 90/64/12 91/63/12 92/66/12
f 95/67/19 94/68/19 93/69/19
f 94/68/19 95/67/19 96/70/19
f 99/71/20 98/72/20 97/73/20
f 98/72/20 99/71/20 100/74/20
f 103/75/21 102/76/21 101/77/21
f 102/76/21 103/75/21 104/78/21
f 107/79/22 106/80/22 105/81/22
f 106/80/22 107/79/22 108/82/22
s 1
f 11/83/23 10/84/24 9/85/24
f 10/84/24 11/83/23 12/86/23
f 15/87/25 14/88/26 13/89/25
f 14/88/26 15/87/25 16/90/26
f 19/91/27 18/92/28 17/93/28
f 18/92/28 19/91/27 20/94/27
f 23/95/29 22/96/30 21/97/30
f 22/96/30 23/95/29 24/98/29
f 43/99/27 42/25/10 41/100/27
f 42/25/10 43/99/27 44/26/10
f 47/30/10 41/100/27 42/25/10
f 41/100/27 47/30/10 48/29/10
f 54/36/2 55/101/29 49/33/2
f 55/101/29 54/36/2 56/102/29
f 56/102/29 54/36/2 53/35/1
f 56/102/29 53/35/1 51/31/1
f 59/103/26 58/104/31 57/105/26
f 58/104/31 59/103/26 60/106/31
f 63/107/23 62/37/13 61/108/23
f 62/37/13 63/107/23 64/38/13
f 67/42/13 61/108/23 62/37/13
f 61/108/23 67/42/13 68/41/32
usemtl foliage.006
s off
f 177/109/33 176/110/33 175/111/33
f 176/110/33 177/109/33 178/112/33
f 178/112/33 177/109/33 179/113/33
f 179/113/33 177/109/33 180/114/33
f 179/113/34 180/114/34 181/115/34
f 181/115/33 180/114/33 182/116/33
f 181/115/33 182/116/33 183/117/33
f 183/117/33 182/116/33 184/118/33
f 184/118/33 182/116/33 185/119/33
f 186/120/33 176/110/33 178/112/33
f 176/110/33 186/120/33 187/121/33
f 187/121/33 186/120/33 188/122/33
f 187/121/33 188/122/33 189/123/33
f 189/123/35 184/118/35 185/119/35
f 189/123/33 188/122/33 190/124/33
f 189/123/33 190/124/33 184/118/33
f 208/125/36 207/126/36 206/127/36
f 207/126/36 208/125/36 209/128/36
f 209/128/36 210/129/36 211/130/36
f 213/131/36 212/132/36 214/133/36
f 214/133/36 212/132/36 215/134/36
f 207/126/36 216/135/36 206/127/36
f 216/135/36 217/136/36 218/137/36
f 218/137/36 217/136/36 219/138/36
f 218/137/36 219/138/36 220/139/36
f 339/140/37 338/141/37 337/142/37
f 338/141/37 339/140/37 340/143/37
f 340/143/37 339/140/37 341/144/37
f 340/143/37 341/144/37 342/145/37
f 342/145/37 341/144/37 343/146/37
f 343/146/37 341/144/37 344/147/37
f 343/146/37 344/147/37 345/148/37
f 338/141/37 346/149/37 337/142/37
f 346/149/37 338/141/37 347/150/37
f 346/149/37 347/150/37 348/151/37
f 348/151/37 347/150/37 349/152/37
f 348/151/37 349/152/37 350/153/37
f 348/151/37 350/153/37 351/154/37
f 351/154/37 350/153/37 345/148/37
f 351/154/37 345/148/37 344/147/37
f 351/154/37 344/147/37 352/155/37
f 407/156/4 406/157/4 405/158/4
f 406/157/4 407/156/4 408/159/4
f 406/157/4 408/159/4 409/160/4
f 409/160/4 408/159/4 410/161/4
f 410/161/4 408/159/4 411/162/4
f 410/161/4 411/162/4 412/163/4
f 413/164/4 406/157/4 409/160/4
f 406/157/4 413/164/4 414/165/4
f 414/165/4 413/164/4 412/163/4
f 414/165/4 412/163/4 415/166/4
f 415/166/4 412/163/4 411/162/4
f 415/166/4 411/162/4 416/167/4
s 1
f 111/168/38 110/169/39 109/170/39
f 110/169/39 111/168/38 112/171/38
f 115/172/40 114/173/41 113/174/40
f 114/173/41 115/172/40 116/175/41
f 119/176/42 118/177/43 117/178/42
f 122/179/44 121/180/45 120/181/45
f 121/180/45 122/179/44 123/182/44
f 126/183/46 125/184/47 124/185/46
f 125/184/47 126/183/46 127/186/47
f 130/187/48 129/188/49 128/189/49
f 129/188/49 130/187/48 131/190/48
f 134/191/50 133/192/51 132/193/51
f 133/192/51 134/191/50 135/194/50
f 138/195/52 137/196/53 136/197/53
f 141/198/54 140/199/55 139/200/55
f 140/199/55 141/198/54 142/201/54
f 145/202/56 144/203/57 143/204/57
f 144/203/57 145/202/56 146/205/56
f 149/206/58 148/207/59 147/208/59
f 148/207/59 149/206/58 150/209/58
f 153/210/60 152/211/61 151/212/61
f 152/211/61 153/210/60 154/213/60
f 157/214/59 156/215/62 155/216/59
f 156/215/62 157/214/59 158/217/62
f 161/218/63 160/219/64 159/220/65
f 160/219/64 161/218/63 162/221/63
f 165/222/66 164/223/67 163/224/67
f 164/223/67 165/222/66 166/225/66
f 169/226/68 168/227/69 167/228/68
f 168/227/69 169/226/68 170/229/69
f 173/230/70 172/231/40 171/232/70
f 172/231/40 173/230/70 174/233/40
f 193/234/71 192/235/42 191/236/71
f 192/235/42 193/234/71 194/237/42
f 197/238/72 196/239/73 195/240/72
f 196/239/73 197/238/72 198/241/73
f 201/242/74 200/243/74 199/244/75
f 204/245/76 203/246/77 202/247/76
f 203/246/77 204/245/76 205/248/78
f 209/128/36 208/125/36 210/129/36
f 211/130/36 210/129/36 212/132/36
f 211/130/36 212/132/36 213/131/36
f 216/135/36 207/126/36 217/136/36
f 220/139/36 214/133/36 215/134/36
f 220/139/36 219/138/36 221/249/36
f 220/139/36 221/249/36 214/133/36
f 224/250/79 223/251/80 222/252/79
f 223/251/80 224/250/79 225/253/80
f 228/254/81 227/255/82 226/256/81
f 227/255/82 228/254/81 229/257/82
f 232/258/74 231/259/83 230/260/74
f 231/259/83 232/258/74 233/261/83
f 236/262/84 235/263/85 234/264/84
f 239/265/86 238/266/63 237/267/63
f 242/268/47 241/269/87 240/270/47
f 241/269/87 242/268/47 243/271/87
f 246/272/88 245/273/88 244/274/89
f 249/275/90 248/276/76 247/277/91
f 248/276/76 249/275/90 250/278/76
f 253/279/92 252/280/93 251/281/93
f 256/282/94 255/283/95 254/284/95
f 255/283/95 256/282/94 257/285/94
f 260/286/96 259/287/97 258/288/97
f 259/287/97 260/286/96 261/289/96
f 264/290/98 263/291/69 262/292/69
f 267/293/99 266/294/84 265/295/84
f 266/294/84 267/293/99 268/296/99
f 271/297/100 270/298/53 269/299/101
f 270/298/53 271/297/100 272/300/53
f 275/301/102 274/302/103 273/303/102
f 274/302/103 275/301/102 276/304/103
f 279/305/93 278/306/104 277/307/104
f 278/306/104 279/305/93 280/308/93
f 283/309/105 282/310/106 281/311/105
f 282/310/106 283/309/105 284/312/106
f 287/313/88 286/314/107 285/315/107
f 286/314/107 287/313/88 288/316/88
f 291/317/108 290/318/109 289/319/109
f 290/318/109 291/317/108 292/320/108
f 295/321/110 294/322/111 293/323/111
f 294/322/111 295/321/110 296/324/110
f 299/325/112 298/326/54 297/327/54
f 298/326/54 299/325/112 300/328/112
f 303/329/95 302/330/113 301/331/114
f 302/330/113 303/329/95 304/332/95
f 307/333/115 306/334/116 305/335/116
f 306/334/116 307/333/115 308/336/115
f 311/337/82 310/338/117 309/339/82
f 310/338/117 311/337/82 312/340/117
f 315/341/118 314/342/60 313/343/60
f 314/342/60 315/341/118 316/344/118
f 319/345/119 318/346/110 317/347/110
f 318/346/110 319/345/119 320/348/119
f 323/349/106 322/350/120 321/351/106
f 322/350/120 323/349/106 324/352/120
f 327/353/121 326/354/122 325/355/121
f 326/354/122 327/353/121 328/356/122
f 331/357/123 330/358/115 329/359/115
f 330/358/115 331/357/123 332/360/123
f 335/361/124 334/362/48 333/363/48
f 334/362/48 335/361/124 336/364/124
f 355/365/45 354/366/125 353/367/45
f 354/366/125 355/365/45 356/368/125
f 359/369/126 358/370/127 357/371/127
f 358/370/127 359/369/126 360/372/126
f 363/373/128 362/374/108 361/375/108
f 362/374/108 363/373/128 364/376/128
f 367/377/129 366/378/96 365/379/96
f 366/378/96 367/377/129 368/380/129
f 371/381/130 370/382/126 369/383/126
f 370/382/126 371/381/130 372/384/130
f 375/385/131 374/386/38 373/387/38
f 374/386/38 375/385/131 376/388/131
f 379/389/132 378/390/66 377/391/66
f 378/390/66 379/389/132 380/392/132
f 383/393/133 382/394/72 381/395/72
f 382/394/72 383/393/133 384/396/133
f 387/397/122 386/398/134 385/399/122
f 386/398/134 387/397/122 388/400/134
f 391/401/135 390/402/102 389/403/135
f 390/402/102 391/401/135 392/404/102
f 395/405/136 394/406/50 393/407/50
f 394/406/50 395/405/136 396/408/136
f 399/409/80 398/410/137 397/411/80
f 398/410/137 399/409/80 400/412/137
f 403/413/57 402/414/138 401/415/57
f 402/414/138 403/413/57 404/416/138
