# Blender MTL File: 'town.blend'
# Material Count: 2

newmtl foliage.006
Ns 0.000000
Ka 1.000000 1.000000 1.000000
Kd 0.226593 0.716981 0.585427
Ks 1.000000 1.000000 1.000000
Ke 0.000000 0.000000 0.000000
Ni 1.450000
d 1.000000
illum 3

newmtl wood.043
Ns 0.000000
Ka 1.000000 1.000000 1.000000
Kd 0.909804 0.549020 0.349020
Ks 1.000000 1.000000 1.000000
Ke 0.000000 0.000000 0.000000
Ni 1.450000
d 1.000000
illum 3
