[gd_resource type="StyleBoxFlat" format=2]

[resource]
bg_color = Color( 0, 0, 0, 1 )
border_width_left = 3
border_width_top = 3
border_width_right = 3
border_width_bottom = 3
border_color = Color( 0.341176, 0.490196, 0.933333, 1 )
corner_detail = 20
expand_margin_left = 5.0
expand_margin_right = 5.0
expand_margin_top = 5.0
expand_margin_bottom = 5.0
