[gd_scene load_steps=3 format=2]

[ext_resource path="res://characters/player/Player.tscn" type="PackedScene" id=1]
[ext_resource path="res://characters/player/colonial.glb" type="PackedScene" id=2]

[node name="Player" instance=ExtResource( 1 )]

[node name="box" parent="." index="1"]
transform = Transform( 1, 0, 0, 0, -1, 8.74228e-08, 0, -8.74228e-08, -1, -0.71423, 0.593923, 0.869459 )

[node name="thief" parent="MeshWrapper" index="0"]
transform = Transform( -0.6, 0, -1.50996e-07, 0, 0.4, 0, 9.05975e-08, 0, -1, 0, 0, 0 )
visible = false

[node name="colonial" parent="MeshWrapper" index="1" instance=ExtResource( 2 )]
transform = Transform( -1, 0, -8.74228e-08, 0, 1, 0, 8.74228e-08, 0, -1, 0, 0, 0 )
