[gd_scene load_steps=8 format=2]

[ext_resource path="res://Particles/Square.png" type="Texture" id=1]
[ext_resource path="res://Gameplay/Target.gd" type="Script" id=2]

[sub_resource type="BoxShape" id=1]
extents = Vector3( 0.9, 0.9, 0.9 )

[sub_resource type="SpatialMaterial" id=2]
flags_transparent = true
flags_unshaded = true
vertex_color_use_as_albedo = true
albedo_texture = ExtResource( 1 )

[sub_resource type="PlaneMesh" id=3]
material = SubResource( 2 )
size = Vector2( 1, 1 )

[sub_resource type="Curve" id=4]
_data = [ Vector2( 0, 0 ), 0.0, 0.0, 0, 0, Vector2( 0.16092, 0.9 ), 0.0, 0.0, 0, 0 ]

[sub_resource type="Gradient" id=5]
offsets = PoolRealArray( 0, 0.211921, 0.496689, 0.89404 )
colors = PoolColorArray( 0, 0.87, 0.8555, 0.0235294, 0, 0.87, 0.8555, 1, 0, 0.87, 0.8555, 1, 0, 0.87, 0.8555, 0 )

[node name="Target" type="Area"]
script = ExtResource( 2 )

[node name="CollisionShape" type="CollisionShape" parent="."]
transform = Transform( 1, 0, 0, 0, 1, 0, 0, 0, 1, 0, 1, 0 )
shape = SubResource( 1 )

[node name="Target" type="CPUParticles" parent="."]
amount = 7
lifetime = 2.0
mesh = SubResource( 3 )
gravity = Vector3( 0, 1, 0 )
scale_amount_curve = SubResource( 4 )
color_ramp = SubResource( 5 )
[connection signal="body_entered" from="." to="." method="_on_Target_body_entered"]
