[gd_scene load_steps=5 format=2]

[ext_resource path="res://UI/characters_thumbnail/thief_city.png" type="Texture" id=1]
[ext_resource path="res://Gameplay/Dialogs.gd" type="Script" id=2]
[ext_resource path="res://UI/main_theme.tres" type="Theme" id=3]

[sub_resource type="Animation" id=1]
resource_name = "appear"
length = 1.2
tracks/0/type = "method"
tracks/0/path = NodePath(".")
tracks/0/interp = 1
tracks/0/loop_wrap = true
tracks/0/imported = false
tracks/0/enabled = true
tracks/0/keys = {
"times": PoolRealArray( 1.2 ),
"transitions": PoolRealArray( 1 ),
"values": [ {
"args": [  ],
"method": "appeared"
} ]
}
tracks/1/type = "value"
tracks/1/path = NodePath("Panel:margin_top")
tracks/1/interp = 2
tracks/1/loop_wrap = true
tracks/1/imported = false
tracks/1/enabled = true
tracks/1/keys = {
"times": PoolRealArray( 0, 0.2, 0.7, 1 ),
"transitions": PoolRealArray( 1, 1, 1, 1 ),
"update": 0,
"values": [ 10.0, 10.0, -135.994, -125.994 ]
}
tracks/2/type = "value"
tracks/2/path = NodePath("Panel:margin_bottom")
tracks/2/interp = 2
tracks/2/loop_wrap = true
tracks/2/imported = false
tracks/2/enabled = true
tracks/2/keys = {
"times": PoolRealArray( 0, 0.2, 0.7, 1 ),
"transitions": PoolRealArray( 1, 1, 1, 1 ),
"update": 0,
"values": [ 136.0, 136.0, -9.99396, 0.00604248 ]
}

[node name="Dialogs" type="CanvasLayer"]
script = ExtResource( 2 )

[node name="Panel" type="PanelContainer" parent="."]
anchor_left = 0.5
anchor_top = 1.0
anchor_right = 0.5
anchor_bottom = 1.0
margin_left = -263.834
margin_top = 10.0
margin_right = 266.166
margin_bottom = 136.0
theme = ExtResource( 3 )
__meta__ = {
"_edit_group_": true,
"_edit_use_anchors_": false
}

[node name="MarginContainer" type="MarginContainer" parent="Panel"]
margin_right = 530.0
margin_bottom = 126.0
custom_constants/margin_right = 10
custom_constants/margin_top = 10
custom_constants/margin_left = 10
custom_constants/margin_bottom = 10

[node name="HBoxContainer" type="HBoxContainer" parent="Panel/MarginContainer"]
margin_left = 10.0
margin_top = 10.0
margin_right = 520.0
margin_bottom = 116.0
custom_constants/separation = 20

[node name="TextureRect" type="TextureRect" parent="Panel/MarginContainer/HBoxContainer"]
margin_right = 90.0
margin_bottom = 106.0
texture = ExtResource( 1 )
stretch_mode = 3

[node name="Label" type="Label" parent="Panel/MarginContainer/HBoxContainer"]
margin_left = 110.0
margin_top = 41.0
margin_right = 510.0
margin_bottom = 65.0
rect_min_size = Vector2( 400, 0 )
custom_colors/font_color = Color( 0, 0, 0, 1 )
text = "Placeholder"
autowrap = true

[node name="AnimationPlayer" type="AnimationPlayer" parent="."]
autoplay = "appear"
anims/appear = SubResource( 1 )

[node name="Timer" type="Timer" parent="."]
wait_time = 4.0
one_shot = true
[connection signal="timeout" from="Timer" to="." method="_on_Timer_timeout"]
